{
    "Command": {
        "nx-c-centreon-influxdb-query-cpu-usage": {
            "arguments": {
                "--critical-status": {
                    "type": "Function",
                    "body": "var thresholds = []\r\nvar total = macro(\"$nx_centreon_influxdb_query_cpu_usage_critical_total$\")\r\nvar user = macro(\"$nx_centreon_influxdb_query_cpu_usage_critical_user$\")\r\nvar system = macro(\"$nx_centreon_influxdb_query_cpu_usage_critical_system$\")\r\n\r\nif (total != null) {\r\n\tthresholds.add(\"%{usage_total} > \"+ total)\r\n}\r\nif (user != null) {\r\n\tthresholds.add(\"%{usage_user} > \"+ user)\r\n}\r\nif (system != null) {\r\n\tthresholds.add(\"%{usage_system} > \"+ system)\r\n}\r\n\r\nif (thresholds.len() > 0) {\r\n\treturn thresholds.join(\" or \")\r\n} else {\r\n\treturn null\r\n}"
                },
                "--warning-status": {
                    "type": "Function",
                    "body": "var thresholds = []\r\nvar total = macro(\"$nx_centreon_influxdb_query_cpu_usage_warning_total$\")\r\nvar user = macro(\"$nx_centreon_influxdb_query_cpu_usage_warning_user$\")\r\nvar system = macro(\"$nx_centreon_influxdb_query_cpu_usage_warning_system$\")\r\n\r\nif (total != null) {\r\n\tthresholds.add(\"%{usage_total} > \"+ total)\r\n}\r\nif (user != null) {\r\n\tthresholds.add(\"%{usage_user} > \"+ user)\r\n}\r\nif (system != null) {\r\n\tthresholds.add(\"%{usage_system} > \"+ system)\r\n}\r\n\r\nif (thresholds.len() > 0) {\r\n\treturn thresholds.join(\" or \")\r\n} else {\r\n\treturn null\r\n}"
                }
            },
            "fields": [],
            "imports": [
                "nx-ct-centreon-influxdb-query"
            ],
            "methods_execute": "PluginCheck",
            "object_name": "nx-c-centreon-influxdb-query-cpu-usage",
            "object_type": "object",
            "vars": {
                "nx_centreon_influxdb_query_instance": "host",
                "nx_centreon_influxdb_query_multiple_output": "Total CPU usage($nx_centreon_influxdb_query_query_aggregation$): %{usage_total}% (%{usage_user}% user, %{usage_system}% system)",
                "nx_centreon_influxdb_query_output": "Total CPU usage($nx_centreon_influxdb_query_query_aggregation$): %{usage_total}% (%{usage_user}% user, %{usage_system}% system)",
                "nx_centreon_influxdb_query_query": [
                    "usage_total,SELECT $nx_centreon_influxdb_query_query_aggregation$(usage_total) AS usage_total FROM (SELECT 100 - usage_idle AS \"usage_total\" FROM \"$nx_centreon_influxdb_query_database$\".\"$nx_centreon_influxdb_query_retention_policy$\".\"cpu\" WHERE host=~/^$nx_centreon_influxdb_query_host_name$$$/ AND cpu = 'cpu-total' AND time > (now() - $nx_centreon_influxdb_query_time_window$) GROUP BY \"$nx_centreon_influxdb_query_instance$\") GROUP BY \"$nx_centreon_influxdb_query_instance$\";",
                    "usage_user,SELECT $nx_centreon_influxdb_query_query_aggregation$(usage_user) AS usage_user FROM \"$nx_centreon_influxdb_query_database$\".\"$nx_centreon_influxdb_query_retention_policy$\".\"cpu\" WHERE host=~/^$nx_centreon_influxdb_query_host_name$$$/ AND cpu = 'cpu-total' AND time > (now() - $nx_centreon_influxdb_query_time_window$) GROUP BY \"$nx_centreon_influxdb_query_instance$\";",
                    "usage_system,SELECT $nx_centreon_influxdb_query_query_aggregation$(usage_system) AS usage_system FROM \"$nx_centreon_influxdb_query_database$\".\"$nx_centreon_influxdb_query_retention_policy$\".\"cpu\" WHERE host=~/^$nx_centreon_influxdb_query_host_name$$$/ AND cpu = 'cpu-total' AND time > (now() - $nx_centreon_influxdb_query_time_window$) GROUP BY \"$nx_centreon_influxdb_query_instance$\";"
                ],
                "nx_centreon_influxdb_query_query_aggregation": "MAX",
                "nx_centreon_influxdb_query_retention_policy": "autogen",
                "nx_centreon_plugin_change_exit": "unknown=critical",
                "nx_centreon_plugin_change_perfdata": [
                    ".*,,eval(%(label) =~ s/^(.*)#//g)",
                    ".*,,,,0,"
                ],
                "nx_centreon_plugin_change_short_output": [
                    "UNKNOWN: No queries found.~UNKNOWN: No data in the last $nx_centreon_influxdb_query_time_window$~gi"
                ]
            }
        },
        "nx-c-centreon-influxdb-query-disk-free-linux": {
            "arguments": {
                "--critical-status": {
                    "type": "Function",
                    "body": "var thresholds = []\r\nvar pbytes = macro(\"$nx_centreon_influxdb_query_disk_linux_bytes_free_pct_critical$\")\r\nvar pinodes = macro(\"$nx_centreon_influxdb_query_disk_linux_inodes_free_pct_critical$\")\r\n\r\nif (pbytes != null) {\r\n\tthresholds.add(\"%{bytes_free_percent} < \"+ pbytes)\r\n}\r\nif (pinodes != null) {\r\n\tthresholds.add(\"%{inodes_free_percent} < \"+ pinodes)\r\n}\r\n\r\nif (thresholds.len() > 0) {\r\n\treturn thresholds.join(\" or \")\r\n} else {\r\n\treturn null\r\n}"
                },
                "--warning-status": {
                    "type": "Function",
                    "body": "var thresholds = []\r\nvar pbytes = macro(\"$nx_centreon_influxdb_query_disk_linux_bytes_free_pct_warning$\")\r\nvar pinodes = macro(\"$nx_centreon_influxdb_query_disk_linux_inodes_free_pct_warning$\")\r\n\r\nif (pbytes != null) {\r\n\tthresholds.add(\"%{bytes_free_percent} < \"+ pbytes)\r\n}\r\nif (pinodes != null) {\r\n\tthresholds.add(\"%{inodes_free_percent} < \"+ pinodes)\r\n}\r\n\r\nif (thresholds.len() > 0) {\r\n\treturn thresholds.join(\" or \")\r\n} else {\r\n\treturn null\r\n}"
                }
            },
            "fields": [],
            "imports": [
                "nx-ct-centreon-influxdb-query"
            ],
            "methods_execute": "PluginCheck",
            "object_name": "nx-c-centreon-influxdb-query-disk-free-linux",
            "object_type": "object",
            "vars": {
                "nx_centreon_influxdb_query_disk_linux_filter_device": ".*",
                "nx_centreon_influxdb_query_disk_linux_filter_fstype": ".*",
                "nx_centreon_influxdb_query_disk_linux_filter_path": ".*",
                "nx_centreon_influxdb_query_instance": "path",
                "nx_centreon_influxdb_query_multiple_output": "Free space on all disks is OK",
                "nx_centreon_influxdb_query_output": "Disk %{instance} free space ($nx_centreon_influxdb_query_query_aggregation$): %{bytes_free_percent}% (Free inode: %{inodes_free_percent}%)",
                "nx_centreon_influxdb_query_query": [
                    "bytes_free_percent,SELECT $nx_centreon_influxdb_query_query_aggregation$(bytes_free_percent) AS bytes_free_percent FROM (SELECT (100 - used_percent) AS bytes_free_percent FROM \"$nx_centreon_influxdb_query_database$\".\"$nx_centreon_influxdb_query_retention_policy$\".\"disk\" WHERE host=~/^$nx_centreon_influxdb_query_host_name$$$/ AND (device=~/$nx_centreon_influxdb_query_disk_linux_filter_path$/ OR fstype=~/$nx_centreon_influxdb_query_disk_linux_filter_fstype$/ or path=~/$nx_centreon_influxdb_query_disk_linux_filter_device$/) AND time > (now() - $nx_centreon_influxdb_query_time_window$)) GROUP BY \"$nx_centreon_influxdb_query_instance$\";",
                    "inodes_free_percent,SELECT $nx_centreon_influxdb_query_query_aggregation$(inodes_free_percent) AS inodes_free_percent FROM (SELECT (100 * inodes_free / inodes_total) AS inodes_free_percent FROM \"$nx_centreon_influxdb_query_database$\".\"$nx_centreon_influxdb_query_retention_policy$\".\"disk\" WHERE host=~/^$nx_centreon_influxdb_query_host_name$$$/ AND (device=~/$nx_centreon_influxdb_query_disk_linux_filter_path$/ OR fstype=~/$nx_centreon_influxdb_query_disk_linux_filter_fstype$/ or path=~/$nx_centreon_influxdb_query_disk_linux_filter_device$/) AND time > (now() - $nx_centreon_influxdb_query_time_window$)) GROUP BY \"$nx_centreon_influxdb_query_instance$\";"
                ],
                "nx_centreon_influxdb_query_query_aggregation": "MIN",
                "nx_centreon_influxdb_query_retention_policy": "autogen",
                "nx_centreon_plugin_change_exit": "unknown=critical",
                "nx_centreon_plugin_change_perfdata": [
                    ".*,,eval(%(label) =~ s/^(.*)#(.*)/$2_$1/g)",
                    ".*percent,,,%,0,100"
                ],
                "nx_centreon_plugin_change_short_output": [
                    "UNKNOWN: No queries found.~UNKNOWN: No data in the last $nx_centreon_influxdb_query_time_window$~gi"
                ]
            }
        },
        "nx-c-centreon-influxdb-query-disk-free-windows": {
            "arguments": {
                "--critical-status": {
                    "type": "Function",
                    "body": "var thresholds = []\r\nvar pbytes = macro(\"$nx_centreon_influxdb_query_disk_windows_bytes_free_pct_critical$\")\r\n\r\nif (pbytes != null) {\r\n\tthresholds.add(\"%{bytes_free_percent} < \"+ pbytes)\r\n}\r\n\r\nif (thresholds.len() > 0) {\r\n\treturn thresholds.join(\" or \")\r\n} else {\r\n\treturn null\r\n}"
                },
                "--warning-status": {
                    "type": "Function",
                    "body": "var thresholds = []\r\nvar pbytes = macro(\"$nx_centreon_influxdb_query_disk_windows_bytes_free_pct_warning$\")\r\n\r\nif (pbytes != null) {\r\n\tthresholds.add(\"%{bytes_free_percent} < \"+ pbytes)\r\n}\r\n\r\nif (thresholds.len() > 0) {\r\n\treturn thresholds.join(\" or \")\r\n} else {\r\n\treturn null\r\n}"
                }
            },
            "fields": [],
            "imports": [
                "nx-ct-centreon-influxdb-query"
            ],
            "methods_execute": "PluginCheck",
            "object_name": "nx-c-centreon-influxdb-query-disk-free-windows",
            "object_type": "object",
            "vars": {
                "nx_centreon_influxdb_query_disk_windows_filter_device": ".*",
                "nx_centreon_influxdb_query_disk_windows_filter_fstype": ".*",
                "nx_centreon_influxdb_query_disk_windows_filter_path": ".*",
                "nx_centreon_influxdb_query_instance": "path",
                "nx_centreon_influxdb_query_multiple_output": "Free space on all disks is OK",
                "nx_centreon_influxdb_query_output": "Disk %{instance} free space ($nx_centreon_influxdb_query_query_aggregation$): %{bytes_free_percent}%",
                "nx_centreon_influxdb_query_query": [
                    "bytes_free_percent,SELECT $nx_centreon_influxdb_query_query_aggregation$(bytes_free_percent) AS bytes_free_percent FROM (SELECT (100 - used_percent) AS bytes_free_percent FROM \"$nx_centreon_influxdb_query_database$\".\"$nx_centreon_influxdb_query_retention_policy$\".\"disk\" WHERE host=~/^$nx_centreon_influxdb_query_host_name$$$/ AND (device=~/$nx_centreon_influxdb_query_disk_windows_filter_path$/ OR fstype=~/$nx_centreon_influxdb_query_disk_windows_filter_fstype$/ or path=~/$nx_centreon_influxdb_query_disk_windows_filter_device$/) AND time > (now() - $nx_centreon_influxdb_query_time_window$)) GROUP BY \"$nx_centreon_influxdb_query_instance$\";"
                ],
                "nx_centreon_influxdb_query_query_aggregation": "MIN",
                "nx_centreon_influxdb_query_retention_policy": "autogen",
                "nx_centreon_plugin_change_exit": "unknown=critical",
                "nx_centreon_plugin_change_perfdata": [
                    ".*,,eval(%(label) =~ s/^(.*)#(.*)/$2_$1/g)",
                    ".*percent,,,%,0,100"
                ],
                "nx_centreon_plugin_change_short_output": [
                    "UNKNOWN: No queries found.~UNKNOWN: No data in the last $nx_centreon_influxdb_query_time_window$~gi"
                ]
            }
        },
        "nx-c-centreon-influxdb-query-load": {
            "arguments": {
                "--critical-status": {
                    "type": "Function",
                    "body": "var thresholds = []\r\nvar c1 = macro(\"$nx_centreon_influxdb_query_load_critical1$\")\r\nvar c5 = macro(\"$nx_centreon_influxdb_query_load_critical5$\")\r\nvar c15 = macro(\"$nx_centreon_influxdb_query_load_critical15$\")\r\n\r\nif (c1 != null) {\r\n\tthresholds.add(\"%{load1} > \"+ c1)\r\n}\r\nif (c5 != null) {\r\n\tthresholds.add(\"%{load5} > \"+ c5)\r\n}\r\nif (c15 != null) {\r\n\tthresholds.add(\"%{load15} > \"+ c15)\r\n}\r\n\r\nif (thresholds.len() > 0) {\r\n\treturn thresholds.join(\" or \")\r\n} else {\r\n\treturn null\r\n}"
                },
                "--warning-status": {
                    "type": "Function",
                    "body": "var thresholds = []\r\nvar w1 = macro(\"$nx_centreon_influxdb_query_load_warning1$\")\r\nvar w5 = macro(\"$nx_centreon_influxdb_query_load_warning5$\")\r\nvar w15 = macro(\"$nx_centreon_influxdb_query_load_warning15$\")\r\n\r\nif (w1 != null) {\r\n    thresholds.add(\"%{load1} > \"+ w1)\r\n}\r\nif (w5 != null) {\r\n    thresholds.add(\"%{load5} > \"+ w5)\r\n}\r\nif (w15 != null) {\r\n    thresholds.add(\"%{load15} > \"+ w15)\r\n}\r\n\r\nif (thresholds.len() > 0) {\r\n    return thresholds.join(\" or \")\r\n} else {\r\n    return null\r\n}"
                }
            },
            "fields": [],
            "imports": [
                "nx-ct-centreon-influxdb-query"
            ],
            "methods_execute": "PluginCheck",
            "object_name": "nx-c-centreon-influxdb-query-load",
            "object_type": "object",
            "vars": {
                "nx_centreon_influxdb_query_instance": "host",
                "nx_centreon_influxdb_query_multiple_output": "System Load($nx_centreon_influxdb_query_query_aggregation$): %{load1} %{load5} %{load15}",
                "nx_centreon_influxdb_query_output": "System Load($nx_centreon_influxdb_query_query_aggregation$): %{load1} %{load5} %{load15}",
                "nx_centreon_influxdb_query_query": [
                    "load1,SELECT $nx_centreon_influxdb_query_query_aggregation$(load1) AS load1 FROM \"$nx_centreon_influxdb_query_database$\".\"$nx_centreon_influxdb_query_retention_policy$\".\"system\" WHERE host=~/^$nx_centreon_influxdb_query_host_name$$$/ AND time > (now() - $nx_centreon_influxdb_query_time_window$) GROUP BY \"$nx_centreon_influxdb_query_instance$\";",
                    "load5,SELECT $nx_centreon_influxdb_query_query_aggregation$(load5) AS load5 FROM \"$nx_centreon_influxdb_query_database$\".\"$nx_centreon_influxdb_query_retention_policy$\".\"system\" WHERE host=~/^$nx_centreon_influxdb_query_host_name$$$/ AND time > (now() - $nx_centreon_influxdb_query_time_window$) GROUP BY \"$nx_centreon_influxdb_query_instance$\";",
                    "load15,SELECT $nx_centreon_influxdb_query_query_aggregation$(load15) AS load15 FROM \"$nx_centreon_influxdb_query_database$\".\"$nx_centreon_influxdb_query_retention_policy$\".\"system\" WHERE host=~/^$nx_centreon_influxdb_query_host_name$$$/ AND time > (now() - $nx_centreon_influxdb_query_time_window$) GROUP BY \"$nx_centreon_influxdb_query_instance$\";"
                ],
                "nx_centreon_influxdb_query_query_aggregation": "MAX",
                "nx_centreon_influxdb_query_retention_policy": "autogen",
                "nx_centreon_plugin_change_exit": "unknown=critical",
                "nx_centreon_plugin_change_perfdata": [
                    ".*,,eval(%(label) =~ s/^(.*)#//g)",
                    ".*,,,,0,"
                ],
                "nx_centreon_plugin_change_short_output": [
                    "UNKNOWN: No queries found.~UNKNOWN: No data in the last $nx_centreon_influxdb_query_time_window$~gi"
                ]
            }
        },
        "nx-c-centreon-influxdb-query-mem-available": {
            "arguments": {
                "--critical-status": {
                    "type": "Function",
                    "body": "var thresholds = []\r\nvar pt = macro(\"$nx_centreon_influxdb_query_mem_available_pct_critical$\")\r\nvar t = macro(\"$nx_centreon_influxdb_query_mem_available_critical$\")\r\n\r\nif (pt != null) {\r\n    thresholds.add(\"%{available_percent} < \"+ pt)\r\n}\r\nif (t != null) {\r\n    thresholds.add(\"%{available} < \"+ t)\r\n}\r\n\r\nif (thresholds.len() > 0) {\r\n    return thresholds.join(\" or \")\r\n} else {\r\n    return null\r\n}"
                },
                "--warning-status": {
                    "type": "Function",
                    "body": "var thresholds = []\r\nvar pt = macro(\"$nx_centreon_influxdb_query_mem_available_pct_warning$\")\r\nvar t = macro(\"$nx_centreon_influxdb_query_mem_available_warning$\")\r\n\r\nif (pt != null) {\r\n    thresholds.add(\"%{available_percent} < \"+ pt)\r\n}\r\nif (t != null) {\r\n    thresholds.add(\"%{available} < \"+ t)\r\n}\r\n\r\nif (thresholds.len() > 0) {\r\n    return thresholds.join(\" or \")\r\n} else {\r\n    return null\r\n}"
                }
            },
            "fields": [],
            "imports": [
                "nx-ct-centreon-influxdb-query"
            ],
            "methods_execute": "PluginCheck",
            "object_name": "nx-c-centreon-influxdb-query-mem-available",
            "object_type": "object",
            "vars": {
                "nx_centreon_influxdb_query_instance": "host",
                "nx_centreon_influxdb_query_multiple_output": "System memory free ($nx_centreon_influxdb_query_query_aggregation$): %{available}B, %{available_percent}%",
                "nx_centreon_influxdb_query_output": "System memory free ($nx_centreon_influxdb_query_query_aggregation$): %{available}B, %{available_percent}%",
                "nx_centreon_influxdb_query_query": [
                    "available,SELECT $nx_centreon_influxdb_query_query_aggregation$(available) AS available FROM \"$nx_centreon_influxdb_query_database$\".\"$nx_centreon_influxdb_query_retention_policy$\".\"mem\" WHERE host=~/^$nx_centreon_influxdb_query_host_name$$$/ AND time > (now() - $nx_centreon_influxdb_query_time_window$) GROUP BY \"$nx_centreon_influxdb_query_instance$\";",
                    "available_percent,SELECT $nx_centreon_influxdb_query_query_aggregation$(available_percent) AS available_percent FROM \"$nx_centreon_influxdb_query_database$\".\"$nx_centreon_influxdb_query_retention_policy$\".\"mem\" WHERE host=~/^$nx_centreon_influxdb_query_host_name$$$/ AND time > (now() - $nx_centreon_influxdb_query_time_window$) GROUP BY \"$nx_centreon_influxdb_query_instance$\""
                ],
                "nx_centreon_influxdb_query_query_aggregation": "MIN",
                "nx_centreon_influxdb_query_retention_policy": "autogen",
                "nx_centreon_plugin_change_exit": "unknown=critical",
                "nx_centreon_plugin_change_perfdata": [
                    ".*,,eval(%(label) =~ s/^(.*)#//g)",
                    "available,,,B,0,",
                    "available_percent,,,%,0,100"
                ],
                "nx_centreon_plugin_change_short_output": [
                    "UNKNOWN: No queries found.~UNKNOWN: No data in the last $nx_centreon_influxdb_query_time_window$~gi"
                ]
            }
        },
        "nx-c-centreon-influxdb-query-mem-used": {
            "arguments": {
                "--critical-status": {
                    "type": "Function",
                    "body": "var thresholds = []\r\nvar pt = macro(\"$nx_centreon_influxdb_query_mem_used_pct_critical$\")\r\nvar t = macro(\"$nx_centreon_influxdb_query_mem_used_critical$\")\r\n\r\nif (pt != null) {\r\n\tthresholds.add(\"%{used_percent} > \"+ pt)\r\n}\r\nif (t != null) {\r\n\tthresholds.add(\"%{used} > \"+ t)\r\n}\r\n\r\nif (thresholds.len() > 0) {\r\n\treturn thresholds.join(\" or \")\r\n} else {\r\n\treturn null\r\n}"
                },
                "--warning-status": {
                    "type": "Function",
                    "body": "var thresholds = []\r\nvar pt = macro(\"$nx_centreon_influxdb_query_mem_used_pct_warning$\")\r\nvar t = macro(\"$nx_centreon_influxdb_query_mem_used_warning$\")\r\n\r\nif (pt != null) {\r\n\tthresholds.add(\"%{used_percent} > \"+ pt)\r\n}\r\nif (t != null) {\r\n\tthresholds.add(\"%{used} > \"+ t)\r\n}\r\n\r\nif (thresholds.len() > 0) {\r\n\treturn thresholds.join(\" or \")\r\n} else {\r\n\treturn null\r\n}"
                }
            },
            "fields": [],
            "imports": [
                "nx-ct-centreon-influxdb-query"
            ],
            "methods_execute": "PluginCheck",
            "object_name": "nx-c-centreon-influxdb-query-mem-used",
            "object_type": "object",
            "vars": {
                "nx_centreon_influxdb_query_instance": "host",
                "nx_centreon_influxdb_query_multiple_output": "System memory used ($nx_centreon_influxdb_query_query_aggregation$): %{used}B, %{used_percent}%",
                "nx_centreon_influxdb_query_output": "System memory used ($nx_centreon_influxdb_query_query_aggregation$): %{used}B, %{used_percent}%",
                "nx_centreon_influxdb_query_query": [
                    "used,SELECT $nx_centreon_influxdb_query_query_aggregation$(used) AS used FROM \"$nx_centreon_influxdb_query_database$\".\"$nx_centreon_influxdb_query_retention_policy$\".\"mem\" WHERE host=~/^$nx_centreon_influxdb_query_host_name$$$/ AND time > (now() - $nx_centreon_influxdb_query_time_window$) GROUP BY \"$nx_centreon_influxdb_query_instance$\";",
                    "used_percent,SELECT $nx_centreon_influxdb_query_query_aggregation$(used_percent) AS used_percent FROM \"$nx_centreon_influxdb_query_database$\".\"$nx_centreon_influxdb_query_retention_policy$\".\"mem\" WHERE host=~/^$nx_centreon_influxdb_query_host_name$$$/ AND time > (now() - $nx_centreon_influxdb_query_time_window$) GROUP BY \"$nx_centreon_influxdb_query_instance$\";"
                ],
                "nx_centreon_influxdb_query_query_aggregation": "MAX",
                "nx_centreon_influxdb_query_retention_policy": "autogen",
                "nx_centreon_plugin_change_exit": "unknown=critical",
                "nx_centreon_plugin_change_perfdata": [
                    ".*,,eval(%(label) =~ s/^(.*)#//g)",
                    "used,,,B,0,",
                    "used_percent,,,%,0,100"
                ],
                "nx_centreon_plugin_change_short_output": [
                    "UNKNOWN: No queries found.~UNKNOWN: No data in the last $nx_centreon_influxdb_query_time_window$~gi"
                ]
            }
        },
        "nx-c-centreon-influxdb-query-systemd-unit": {
            "arguments": {
                "--critical-status": {
                    "type": "Function",
                    "body": "var thresholds = []\r\nvar statuses = macro(\"$nx_centreon_influxdb_query_systemd_unit_critical$\")\r\n\r\nif (statuses != null) {\r\n\tfor (var status in statuses) {\r\n\t\tthresholds.add(\"%{active_code} == \"+ status)\r\n\t}\r\n}\r\n\r\nif (thresholds.len() > 0) {\r\n\treturn thresholds.join(\" or \")\r\n} else {\r\n\treturn null\r\n}"
                },
                "--warning-status": {
                    "type": "Function",
                    "body": "var thresholds = []\r\nvar statuses = macro(\"$nx_centreon_influxdb_query_systemd_unit_warning$\")\r\n\r\nif (statuses != null) {\r\n\tfor (var status in statuses) {\r\n\t\tthresholds.add(\"%{active_code} == \"+ status)\r\n\t}\r\n}\r\n\r\nif (thresholds.len() > 0) {\r\n\treturn thresholds.join(\" or \")\r\n} else {\r\n\treturn null\r\n}"
                }
            },
            "fields": [],
            "imports": [
                "nx-ct-centreon-influxdb-query"
            ],
            "methods_execute": "PluginCheck",
            "object_name": "nx-c-centreon-influxdb-query-systemd-unit",
            "object_type": "object",
            "vars": {
                "nx_centreon_influxdb_query_instance": "name",
                "nx_centreon_influxdb_query_multiple_output": "All units are active",
                "nx_centreon_influxdb_query_output": "Unit %{instance} is %{active_code}",
                "nx_centreon_influxdb_query_query": [
                    "active_code,SELECT $nx_centreon_influxdb_query_query_aggregation$(active_code) AS active_code FROM \"$nx_centreon_influxdb_query_database$\".\"$nx_centreon_influxdb_query_retention_policy$\".\"systemd_units\" WHERE host=~/^$nx_centreon_influxdb_query_host_name$$$/  AND \"name\" =~ /$nx_centreon_influxdb_query_systemd_unit_name_regex$/ AND time > (now() - $nx_centreon_influxdb_query_time_window$) GROUP BY \"$nx_centreon_influxdb_query_instance$\";"
                ],
                "nx_centreon_influxdb_query_query_aggregation": "LAST",
                "nx_centreon_influxdb_query_retention_policy": "autogen",
                "nx_centreon_plugin_change_exit": "unknown=critical",
                "nx_centreon_plugin_change_long_output": [
                    "UNKNOWN: No queries found.~UNKNOWN: No data in the last $nx_centreon_influxdb_query_time_window$~gi",
                    "is 0~is active~g",
                    "is 1~is reloading~g",
                    "is 2~is inactive~g",
                    "is 3~is failed~g",
                    "is 4~is activating~g",
                    "is 5~is deactivating~g"
                ],
                "nx_centreon_plugin_change_perfdata": [
                    ".*,,eval(%(label) =~ s/#.*//g)",
                    ".*,,,,0,7"
                ],
                "nx_centreon_plugin_change_short_output": [
                    "UNKNOWN: No queries found.~UNKNOWN: No data in the last $nx_centreon_influxdb_query_time_window$~gi",
                    "is 0~is active~g",
                    "is 1~is reloading~g",
                    "is 2~is inactive~g",
                    "is 3~is failed~g",
                    "is 4~is activating~g",
                    "is 5~is deactivating~g"
                ]
            }
        },
        "nx-c-centreon-influxdb-query-uptime": {
            "arguments": {
                "--critical-status": "%{messages} < $nx_centreon_influxdb_query_uptime_count_critical$",
                "--query": "$nx_centreon_influxdb_query_query$",
                "--warning-status": "%{messages} < $nx_centreon_influxdb_query_uptime_count_warning$"
            },
            "fields": [],
            "imports": [
                "nx-ct-centreon-influxdb-query"
            ],
            "methods_execute": "PluginCheck",
            "object_name": "nx-c-centreon-influxdb-query-uptime",
            "object_type": "object",
            "vars": {
                "nx_centreon_influxdb_query_instance": "host",
                "nx_centreon_influxdb_query_output": "Received %{messages} messages in the last $nx_centreon_influxdb_query_time_window$",
                "nx_centreon_influxdb_query_query": [
                    "messages,SELECT $nx_centreon_influxdb_query_query_aggregation$(uptime) AS messages FROM \"$nx_centreon_influxdb_query_database$\".\"$nx_centreon_influxdb_query_retention_policy$\".\"system\" WHERE time > now() - $nx_centreon_influxdb_query_time_window$ and host=~/^$nx_centreon_influxdb_query_host_name$$$/ GROUP BY \"$nx_centreon_influxdb_query_instance$\";"
                ],
                "nx_centreon_influxdb_query_query_aggregation": "COUNT",
                "nx_centreon_influxdb_query_retention_policy": "autogen",
                "nx_centreon_influxdb_query_uptime_count_critical": 4,
                "nx_centreon_influxdb_query_uptime_count_warning": 12,
                "nx_centreon_plugin_change_exit": "unknown=critical",
                "nx_centreon_plugin_change_perfdata": [
                    ".*,,eval(%(label) =~ s/^(.*)#//g)",
                    ".*,,,,0,"
                ],
                "nx_centreon_plugin_change_short_output": [
                    "UNKNOWN: No queries found.~CRITICAL: No messages received in the last $nx_centreon_influxdb_query_time_window$~gi"
                ]
            }
        },
        "nx-c-centreon-influxdb-query-uptime-value": {
            "arguments": {
                "--critical-status": {
                    "type": "Function",
                    "body": "var thresholds = []\r\nvar min_uptime = macro(\"$nx_centreon_influxdb_query_uptime_value_critical_min$\")\r\nvar max_uptime = macro(\"$nx_centreon_influxdb_query_uptime_value_critical_max$\")\r\n\r\nif (min_uptime != null) {\r\n\tthresholds.add(\"%{uptime} < \"+ min_uptime)\r\n}\r\nif (max_uptime != null) {\r\n\tthresholds.add(\"%{uptime} > \"+ max_uptime)\r\n}\r\n\r\nif (thresholds.len() > 0) {\r\n\treturn thresholds.join(\" or \")\r\n} else {\r\n\treturn null\r\n}"
                },
                "--query": "$nx_centreon_influxdb_query_query$",
                "--warning-status": {
                    "type": "Function",
                    "body": "var thresholds = []\r\nvar min_uptime = macro(\"$nx_centreon_influxdb_query_uptime_value_warning_min$\")\r\nvar max_uptime = macro(\"$nx_centreon_influxdb_query_uptime_value_warning_max$\")\r\n\r\nif (min_uptime != null) {\r\n\tthresholds.add(\"%{uptime} < \"+ min_uptime)\r\n}\r\nif (max_uptime != null) {\r\n\tthresholds.add(\"%{uptime} > \"+ max_uptime)\r\n}\r\n\r\nif (thresholds.len() > 0) {\r\n\treturn thresholds.join(\" or \")\r\n} else {\r\n\treturn null\r\n}"
                }
            },
            "fields": [],
            "imports": [
                "nx-ct-centreon-influxdb-query"
            ],
            "methods_execute": "PluginCheck",
            "object_name": "nx-c-centreon-influxdb-query-uptime-value",
            "object_type": "object",
            "vars": {
                "nx_centreon_influxdb_query_instance": "host",
                "nx_centreon_influxdb_query_output": "System uptime is %{uptime}",
                "nx_centreon_influxdb_query_query": [
                    "uptime,SELECT $nx_centreon_influxdb_query_query_aggregation$(uptime) AS uptime FROM \"$nx_centreon_influxdb_query_database$\".\"$nx_centreon_influxdb_query_retention_policy$\".\"system\" WHERE time > now() - $nx_centreon_influxdb_query_time_window$ and host=~/^$nx_centreon_influxdb_query_host_name$$$/ GROUP BY \"$nx_centreon_influxdb_query_instance$\";"
                ],
                "nx_centreon_influxdb_query_query_aggregation": "LAST",
                "nx_centreon_influxdb_query_retention_policy": "autogen",
                "nx_centreon_plugin_change_exit": "unknown=critical",
                "nx_centreon_plugin_change_perfdata": [
                    ".*,,eval(%(label) =~ s/^(.*)#//g)",
                    ".*,,,,0,"
                ],
                "nx_centreon_plugin_change_short_output": [
                    "UNKNOWN: No queries found.~CRITICAL: No messages received in the last $nx_centreon_influxdb_query_time_window$~gi",
                    "System uptime is (\\d+)~use Time::Piece; my $$start = localtime; my $$end = $$start + $$1; my $$duration = ($$end - $$start)->pretty; print \"System uptime is $$duration\"~e"
                ]
            }
        },
        "nx-c-centreon-influxdb-query-windows-service": {
            "arguments": {
                "--critical-status": {
                    "type": "Function",
                    "body": "var thresholds = []\r\nvar statuses = macro(\"$nx_centreon_influxdb_query_windows_service_critical$\")\r\n\r\nif (statuses != null) {\r\n\tfor (var status in statuses) {\r\n\t\tthresholds.add(\"%{service_state} == \"+ status)\r\n\t}\r\n}\r\n\r\nif (thresholds.len() > 0) {\r\n\treturn thresholds.join(\" or \")\r\n} else {\r\n\treturn null\r\n}"
                },
                "--warning-status": {
                    "type": "Function",
                    "body": "var thresholds = []\r\nvar statuses = macro(\"$nx_centreon_influxdb_query_windows_service_warning$\")\r\n\r\nif (statuses != null) {\r\n\tfor (var status in statuses) {\r\n\t\tthresholds.add(\"%{service_state} == \"+ status)\r\n\t}\r\n}\r\n\r\nif (thresholds.len() > 0) {\r\n\treturn thresholds.join(\" or \")\r\n} else {\r\n\treturn null\r\n}"
                }
            },
            "fields": [
                {
                    "datafield_id": 2858,
                    "is_required": "n",
                    "var_filter": null
                },
                {
                    "datafield_id": 2861,
                    "is_required": "n",
                    "var_filter": null
                }
            ],
            "imports": [
                "nx-ct-centreon-influxdb-query"
            ],
            "methods_execute": "PluginCheck",
            "object_name": "nx-c-centreon-influxdb-query-windows-service",
            "object_type": "object",
            "vars": {
                "nx_centreon_influxdb_query_instance": "service_name",
                "nx_centreon_influxdb_query_multiple_output": "All services are running",
                "nx_centreon_influxdb_query_output": "Service %{instance} is %{service_state}",
                "nx_centreon_influxdb_query_query": [
                    "service_state,SELECT $nx_centreon_influxdb_query_query_aggregation$(\"state\") AS service_state FROM \"$nx_centreon_influxdb_query_database$\".\"$nx_centreon_influxdb_query_retention_policy$\".\"win_services\" WHERE host=~/^$nx_centreon_influxdb_query_host_name$$$/  AND \"service_name\" =~ /$nx_centreon_influxdb_query_windows_service_name_regex$/ AND time > (now() - $nx_centreon_influxdb_query_time_window$) GROUP BY \"$nx_centreon_influxdb_query_instance$\";"
                ],
                "nx_centreon_influxdb_query_query_aggregation": "LAST",
                "nx_centreon_influxdb_query_retention_policy": "autogen",
                "nx_centreon_plugin_change_exit": "unknown=critical",
                "nx_centreon_plugin_change_long_output": [
                    "UNKNOWN: No queries found.~UNKNOWN: No data in the last $nx_centreon_influxdb_query_time_window$~gi",
                    "is 1~is stopped~g",
                    "is 2~is start pending~g",
                    "is 3~is stop pending~g",
                    "is 4~is running~g",
                    "is 5~is continue pending~g",
                    "is 6~is pause pending~g",
                    "is 7~is paused~g"
                ],
                "nx_centreon_plugin_change_perfdata": [
                    ".*,,eval(%(label) =~ s/#.*//g)",
                    ".*,,,,0,7"
                ],
                "nx_centreon_plugin_change_short_output": [
                    "UNKNOWN: No queries found.~UNKNOWN: No data in the last $nx_centreon_influxdb_query_time_window$~gi",
                    "is 1~is stopped~g",
                    "is 2~is start pending~g",
                    "is 3~is stop pending~g",
                    "is 4~is running~g",
                    "is 5~is continue pending~g",
                    "is 6~is pause pending~g",
                    "is 7~is paused~g"
                ]
            }
        }
    },
    "Datafield": {
        "2858": {
            "varname": "nx_centreon_influxdb_query_instance",
            "caption": "[NX] Instance label",
            "description": "Set the instance label on which the results should be calculate for (Example: --instance='name').  The instance label must be the same label as the \"GROUP BY\" keyword.",
            "datatype": "Icinga\\Module\\Director\\DataType\\DataTypeString",
            "format": null,
            "originalId": "2858",
            "settings": {
                "visibility": "visible"
            },
            "category": "Centreon InfluxDB Query"
        },
        "2861": {
            "varname": "nx_centreon_influxdb_query_query",
            "caption": "[NX] IQL Query",
            "description": "Set a InfluxQL query. Query option must be like --query='label,query'. Query must contain an \"AS\" keyword to rename the column of the selected data, and must match the label.",
            "datatype": "Icinga\\Module\\Director\\DataType\\DataTypeArray",
            "format": null,
            "originalId": "2861",
            "settings": {},
            "category": "Centreon InfluxDB Query"
        }
    },
    "DatafieldCategory": {
        "Centreon InfluxDB Query": {
            "category_name": "Centreon InfluxDB Query",
            "description": null,
            "originalId": "13"
        }
    }
}