{
    "ServiceSet": {
        "nx-ss-server-realtime-linux-basic": {
            "assign_filter": "host.vars.nx_enable_nep_ss=true&!\"nx-ss-server-realtime-linux-basic\"=host.vars.nx_nep_ss_to_exclude&\"nx-ht-server-realtime-linux\"=host.templates",
            "object_name": "nx-ss-server-realtime-linux-basic",
            "object_type": "template",
            "services": {
                "CPU Usage": {
                    "fields": [],
                    "imports": [
                        "nx-st-centreon-influxdb-query-load"
                    ],
                    "object_name": "CPU Usage",
                    "object_type": "object"
                },
                "Disk Free space": {
                    "fields": [],
                    "imports": [
                        "nx-st-centreon-influxdb-query-disk-free-linux",
                        "nx-st-type-custom"
                    ],
                    "object_name": "Disk Free space",
                    "object_type": "object"
                },
                "Memory Free": {
                    "fields": [],
                    "imports": [
                        "nx-st-centreon-influxdb-query-mem-available",
                        "nx-st-type-custom"
                    ],
                    "object_name": "Memory Free",
                    "object_type": "object"
                },
                "Memory Usage": {
                    "fields": [],
                    "imports": [
                        "nx-st-centreon-influxdb-query-mem-used",
                        "nx-st-type-custom"
                    ],
                    "object_name": "Memory Usage",
                    "object_type": "object"
                },
                "System Uptime": {
                    "fields": [],
                    "imports": [
                        "nx-st-centreon-influxdb-query-uptime-value",
                        "nx-st-type-custom"
                    ],
                    "object_name": "System Uptime",
                    "object_type": "object"
                }
            }
        },
        "nx-ss-server-realtime-windows-basic": {
            "assign_filter": "host.vars.nx_enable_nep_ss=true&!\"nx-ss-server-realtime-windows-basic\"=host.vars.nx_nep_ss_to_exclude&\"nx-ht-server-realtime-windows\"=host.templates",
            "object_name": "nx-ss-server-realtime-windows-basic",
            "object_type": "template",
            "services": {
                "CPU Usage": {
                    "fields": [],
                    "imports": [
                        "nx-st-centreon-influxdb-query-cpu-usage",
                        "nx-st-type-custom"
                    ],
                    "object_name": "CPU Usage",
                    "object_type": "object"
                },
                "Disk Free space": {
                    "fields": [],
                    "imports": [
                        "nx-st-centreon-influxdb-query-disk-free-windows",
                        "nx-st-type-custom"
                    ],
                    "object_name": "Disk Free space",
                    "object_type": "object"
                },
                "Memory Free": {
                    "fields": [],
                    "imports": [
                        "nx-st-centreon-influxdb-query-mem-available",
                        "nx-st-type-custom"
                    ],
                    "object_name": "Memory Free",
                    "object_type": "object"
                },
                "Memory Usage": {
                    "fields": [],
                    "imports": [
                        "nx-st-centreon-influxdb-query-mem-used",
                        "nx-st-type-custom"
                    ],
                    "object_name": "Memory Usage",
                    "object_type": "object"
                },
                "System Uptime": {
                    "fields": [],
                    "imports": [
                        "nx-st-centreon-influxdb-query-uptime-value",
                        "nx-st-type-custom"
                    ],
                    "object_name": "System Uptime",
                    "object_type": "object"
                }
            }
        },
        "nx-ss-server-realtime-windows-basic-blending": {
            "assign_filter": "host.vars.nx_enable_nep_ss=true&!\"nx-ss-server-realtime-windows-basic-blending\"=host.vars.nx_nep_ss_to_exclude&\"nx-ht-server-realtime-windows-blending\"=host.templates",
            "object_name": "nx-ss-server-realtime-windows-basic-blending",
            "object_type": "template",
            "services": {
                "Realtime CPU Usage": {
                    "fields": [],
                    "imports": [
                        "nx-st-centreon-influxdb-query-cpu-usage",
                        "nx-st-force-location-master",
                        "nx-st-type-custom"
                    ],
                    "object_name": "Realtime CPU Usage",
                    "object_type": "object"
                },
                "Realtime Disk Free space": {
                    "fields": [],
                    "imports": [
                        "nx-st-centreon-influxdb-query-disk-free-windows",
                        "nx-st-force-location-master",
                        "nx-st-type-custom"
                    ],
                    "object_name": "Realtime Disk Free space",
                    "object_type": "object"
                },
                "Realtime Memory Free": {
                    "fields": [],
                    "imports": [
                        "nx-st-centreon-influxdb-query-mem-available",
                        "nx-st-force-location-master",
                        "nx-st-type-custom"
                    ],
                    "object_name": "Realtime Memory Free",
                    "object_type": "object"
                },
                "Realtime Memory Usage": {
                    "fields": [],
                    "imports": [
                        "nx-st-centreon-influxdb-query-mem-used",
                        "nx-st-force-location-master",
                        "nx-st-type-custom"
                    ],
                    "object_name": "Realtime Memory Usage",
                    "object_type": "object"
                },
                "Realtime System Uptime": {
                    "fields": [],
                    "imports": [
                        "nx-st-centreon-influxdb-query-uptime-value",
                        "nx-st-type-custom"
                    ],
                    "object_name": "Realtime System Uptime",
                    "object_type": "object"
                }
            }
        },
        "nx-ss-server-realtime-linux-basic-blending": {
            "assign_filter": "host.vars.nx_enable_nep_ss=true&!\"nx-ss-server-realtime-linux-basic-blending\"=host.vars.nx_nep_ss_to_exclude&\"nx-ht-server-realtime-linux-blending\"=host.templates",
            "object_name": "nx-ss-server-realtime-linux-basic-blending",
            "object_type": "template",
            "services": {
                "Realtime CPU Usage": {
                    "fields": [],
                    "imports": [
                        "nx-st-centreon-influxdb-query-load"
                    ],
                    "object_name": "Realtime CPU Usage",
                    "object_type": "object"
                },
                "Realtime Disk Free space": {
                    "fields": [],
                    "imports": [
                        "nx-st-centreon-influxdb-query-disk-free-linux",
                        "nx-st-type-custom"
                    ],
                    "object_name": "Realtime Disk Free space",
                    "object_type": "object"
                },
                "Realtime Memory Free": {
                    "fields": [],
                    "imports": [
                        "nx-st-centreon-influxdb-query-mem-available",
                        "nx-st-type-custom"
                    ],
                    "object_name": "Realtime Memory Free",
                    "object_type": "object"
                },
                "Realtime Memory Usage": {
                    "fields": [],
                    "imports": [
                        "nx-st-centreon-influxdb-query-mem-used",
                        "nx-st-type-custom"
                    ],
                    "object_name": "Realtime Memory Usage",
                    "object_type": "object"
                },
                "Realtime System Uptime": {
                    "fields": [],
                    "imports": [
                        "nx-st-centreon-influxdb-query-uptime-value",
                        "nx-st-type-custom"
                    ],
                    "object_name": "Realtime System Uptime",
                    "object_type": "object"
                }
            }
        }
    }
}