{
    "ServiceSet": {
        "nx-ss-windows-ad-dns-server": {
            "assign_filter": "host.vars.nx_enable_nep_ss=true&!\"nx-ss-windows-ad-dns-server\"=host.vars.nx_nep_ss_to_exclude&\"nx-ht-server-windows-dns-server\"=host.templates",
            "description": "Service Configuration:\r\n- DNS A record Status: On host define host.address as IP value\r\n-  DNS PTR record Status: Often DNS entry is Upper-case. Adjust the vars.dns_expected_answers (DNS Expected answer)\r\n- Domain A record Status: On Host define vars.dns_expected_answers (DNS Domain name)",
            "object_name": "nx-ss-windows-ad-dns-server",
            "object_type": "template",
            "services": {
                "Service DNS Server Status": {
                    "action_url": null,
                    "apply_for": null,
                    "assign_filter": null,
                    "check_command": null,
                    "check_interval": null,
                    "check_period": null,
                    "check_timeout": null,
                    "command_endpoint": null,
                    "disabled": false,
                    "display_name": null,
                    "enable_active_checks": null,
                    "enable_event_handler": null,
                    "enable_flapping": null,
                    "enable_notifications": null,
                    "enable_passive_checks": null,
                    "enable_perfdata": null,
                    "event_command": null,
                    "fields": [],
                    "flapping_threshold_high": null,
                    "flapping_threshold_low": null,
                    "groups": [],
                    "host": null,
                    "icon_image": null,
                    "icon_image_alt": null,
                    "imports": [
                        "nx-st-agent-windows-service-status",
                        "nx-st-type-custom"
                    ],
                    "max_check_attempts": null,
                    "notes": null,
                    "notes_url": null,
                    "object_name": "Service DNS Server Status",
                    "object_type": "object",
                    "retry_interval": null,
                    "service_set": null,
                    "template_choice": null,
                    "use_agent": null,
                    "use_var_overrides": null,
                    "vars": {
                        "service_win_service": [
                            "dns"
                        ]
                    },
                    "volatile": null,
                    "zone": null
                },
                "DNS A record Status": {
                    "action_url": null,
                    "apply_for": null,
                    "assign_filter": null,
                    "check_command": null,
                    "check_interval": null,
                    "check_period": null,
                    "check_timeout": null,
                    "command_endpoint": null,
                    "disabled": false,
                    "display_name": null,
                    "enable_active_checks": null,
                    "enable_event_handler": null,
                    "enable_flapping": null,
                    "enable_notifications": null,
                    "enable_passive_checks": null,
                    "enable_perfdata": null,
                    "event_command": null,
                    "fields": [],
                    "flapping_threshold_high": null,
                    "flapping_threshold_low": null,
                    "groups": [],
                    "host": null,
                    "icon_image": null,
                    "icon_image_alt": null,
                    "imports": [
                        "nx-st-agentless-dns-record-status",
                        "nx-st-type-custom"
                    ],
                    "max_check_attempts": null,
                    "notes": null,
                    "notes_url": null,
                    "object_name": "DNS A record Status",
                    "object_type": "object",
                    "retry_interval": null,
                    "service_set": null,
                    "template_choice": null,
                    "use_agent": null,
                    "use_var_overrides": null,
                    "vars": {
                        "dns_expected_answers": "$host.address$"
                    },
                    "volatile": null,
                    "zone": null
                },
                "DNS PTR record Status": {
                    "action_url": null,
                    "apply_for": null,
                    "assign_filter": null,
                    "check_command": null,
                    "check_interval": null,
                    "check_period": null,
                    "check_timeout": null,
                    "command_endpoint": null,
                    "disabled": false,
                    "display_name": null,
                    "enable_active_checks": null,
                    "enable_event_handler": null,
                    "enable_flapping": null,
                    "enable_notifications": null,
                    "enable_passive_checks": null,
                    "enable_perfdata": null,
                    "event_command": null,
                    "fields": [],
                    "flapping_threshold_high": null,
                    "flapping_threshold_low": null,
                    "groups": [],
                    "host": null,
                    "icon_image": null,
                    "icon_image_alt": null,
                    "imports": [
                        "nx-st-agentless-dns-record-status",
                        "nx-st-type-custom"
                    ],
                    "max_check_attempts": null,
                    "notes": null,
                    "notes_url": null,
                    "object_name": "DNS PTR record Status",
                    "object_type": "object",
                    "retry_interval": null,
                    "service_set": null,
                    "template_choice": null,
                    "use_agent": null,
                    "use_var_overrides": null,
                    "vars": {
                        "dns_expected_answers": "$host.name$.",
                        "dns_lookup": "$host.address$"
                    },
                    "volatile": null,
                    "zone": null
                },
                "Domain A record Status": {
                    "action_url": null,
                    "apply_for": null,
                    "assign_filter": null,
                    "check_command": null,
                    "check_interval": null,
                    "check_period": null,
                    "check_timeout": null,
                    "command_endpoint": null,
                    "disabled": false,
                    "display_name": null,
                    "enable_active_checks": null,
                    "enable_event_handler": null,
                    "enable_flapping": null,
                    "enable_notifications": null,
                    "enable_passive_checks": null,
                    "enable_perfdata": null,
                    "event_command": null,
                    "fields": [],
                    "flapping_threshold_high": null,
                    "flapping_threshold_low": null,
                    "groups": [],
                    "host": null,
                    "icon_image": null,
                    "icon_image_alt": null,
                    "imports": [
                        "nx-st-agentless-dns-record-status",
                        "nx-st-type-custom"
                    ],
                    "max_check_attempts": null,
                    "notes": null,
                    "notes_url": null,
                    "object_name": "Domain A record Status",
                    "object_type": "object",
                    "retry_interval": null,
                    "service_set": null,
                    "template_choice": null,
                    "use_agent": null,
                    "use_var_overrides": null,
                    "vars": {
                        "dns_lookup": "$host.vars.dns_domain_name$"
                    },
                    "volatile": null,
                    "zone": null
                },
                "Domain _msdcs A record Status": {
                    "action_url": null,
                    "apply_for": null,
                    "assign_filter": null,
                    "check_command": null,
                    "check_interval": null,
                    "check_period": null,
                    "check_timeout": null,
                    "command_endpoint": null,
                    "disabled": false,
                    "display_name": null,
                    "enable_active_checks": null,
                    "enable_event_handler": null,
                    "enable_flapping": null,
                    "enable_notifications": null,
                    "enable_passive_checks": null,
                    "enable_perfdata": null,
                    "event_command": null,
                    "fields": [],
                    "flapping_threshold_high": null,
                    "flapping_threshold_low": null,
                    "groups": [],
                    "host": null,
                    "icon_image": null,
                    "icon_image_alt": null,
                    "imports": [
                        "nx-st-agentless-dns-record-status",
                        "nx-st-type-custom"
                    ],
                    "max_check_attempts": null,
                    "notes": null,
                    "notes_url": null,
                    "object_name": "Domain _msdcs A record Status",
                    "object_type": "object",
                    "retry_interval": null,
                    "service_set": null,
                    "template_choice": null,
                    "use_agent": null,
                    "use_var_overrides": null,
                    "vars": {
                        "dns_lookup": "_msdcs.$host.vars.dns_domain_name$"
                    },
                    "volatile": null,
                    "zone": null
                }
            }
        }
    }
}
