{
    "ImportSource": {
        "nx-is-datalist-notification-channels": {
            "description": null,
            "key_column": "entry_name",
            "modifiers": [],
            "originalId": "3",
            "provider_class": "Icinga\\Module\\Fileshipper\\ProvidedHook\\Director\\ImportSource",
            "settings": {
                "basedir": "\/neteye\/shared\/icingaweb2\/data\/modules\/fileshipper\/nx-file-data\/",
                "column_cache": "entry_name, entry_value",
                "csv_delimiter": ",",
                "csv_enclosure": "\"",
                "file_format": "csv",
                "file_name": "nx-channel-list.csv",
                "object_class": "host",
                "object_type": "",
                "query": "SELECT dde.entry_name, dde.entry_value FROM director_datalist AS dd INNER JOIN director_datalist_entry AS dde ON dd.id=dde.list_id AND dd.list_name='[NX] Notification Channels List'",
                "resolved": "n",
                "resource": "director"
            },
            "source_name": "nx-is-datalist-notification-channels"
        }
    },
    "SyncRule": {
        "nx-sr-datalist-notification-channels": {
            "description": null,
            "filter_expression": null,
            "object_type": "datalistEntry",
            "originalId": "100",
            "properties": [
                {
                    "destination_field": "list_id",
                    "filter_expression": null,
                    "merge_policy": "override",
                    "priority": "1",
                    "source": "nx-is-datalist-notification-channels",
                    "source_expression": "[NX] Notification Channels List"
                },
                {
                    "destination_field": "entry_name",
                    "filter_expression": null,
                    "merge_policy": "override",
                    "priority": "2",
                    "source": "nx-is-datalist-notification-channels",
                    "source_expression": "${entry_name}"
                },
                {
                    "destination_field": "entry_value",
                    "filter_expression": null,
                    "merge_policy": "override",
                    "priority": "3",
                    "source": "nx-is-datalist-notification-channels",
                    "source_expression": "${entry_value}"
                }
            ],
            "purge_existing": "n",
            "rule_name": "nx-sr-datalist-notification-channels",
            "update_policy": "merge"
        }
    },
    "DirectorJob": {
        "nx-j-import-datalist-notification-channels": {
            "job_name": "nx-j-import-datalist-notification-channels",
            "job_class": "Icinga\\Module\\Director\\Job\\ImportJob",
            "disabled": "n",
            "run_interval": "900",
            "originalId": "100",
            "settings": {
                "run_import": "y",
                "source": "nx-is-datalist-notification-channels"
            }
        },
        "nx-j-sync-datalist-notification-channels": {
            "job_name": "nx-j-sync-datalist-notification-channels",
            "job_class": "Icinga\\Module\\Director\\Job\\SyncJob",
            "disabled": "n",
            "run_interval": "900",
            "originalId": "101",
            "settings": {
                "apply_changes": true,
                "rule": "nx-sr-datalist-notification-channels"
            }
        }
    }
}