{
    "DataList": {
        "[NX] Centreon EMC DataDomain Mode List": {
            "list_name": "[NX] Centreon EMC DataDomain Mode List",
            "owner": "root",
            "originalId": "27",
            "entries": [
                {
                    "entry_name": "filesystem-usage",
                    "entry_value": "filesystem-usage",
                    "format": "string",
                    "allowed_roles": null
                },
                {
                    "entry_name": "hardware",
                    "entry_value": "hardware",
                    "format": "string",
                    "allowed_roles": null
                },
                {
                    "entry_name": "replication",
                    "entry_value": "replication",
                    "format": "string",
                    "allowed_roles": null
                }
            ]
        }
    }
}