{
    "ServiceTemplate": {
        "nx-st-agentless-alyvix3-server": {
            "check_command": "nx-c-check-alyvix3-server",
            "fields": [
                {
                    "datafield_id": 295,
                    "is_required": "n",
                    "var_filter": null
                },
                {
                    "datafield_id": 296,
                    "is_required": "n",
                    "var_filter": null
                },
                {
                    "datafield_id": 297,
                    "is_required": "n",
                    "var_filter": null
                },
                {
                    "datafield_id": 298,
                    "is_required": "n",
                    "var_filter": null
                }
            ],
            "imports": [
                "nx-st-agentless"
            ],
            "object_name": "nx-st-agentless-alyvix3-server",
            "object_type": "template",
            "vars": {
                "alyvix3_server_name": "$host.address$"
            }
        },
        "nx-st-passive-alyvix-testcase": {
            "fields": [
                {
                    "datafield_id": 307,
                    "is_required": "n",
                    "var_filter": null
                },
                {
                    "datafield_id": 308,
                    "is_required": "n",
                    "var_filter": null
                },
                {
                    "datafield_id": 309,
                    "is_required": "n",
                    "var_filter": null
                }
            ],
            "imports": [
                "nx-st-passive"
            ],
            "max_check_attempts": "3",
            "object_name": "nx-st-passive-alyvix-testcase",
            "object_type": "template",
            "zone": "master"
        },
        "nx-st-agentless-alyvix-service-poller": {
            "check_command": "nx-c-alyvix-service-poller",
            "fields": [
                {
                    "datafield_id": 299,
                    "is_required": "n",
                    "var_filter": null
                },
                {
                    "datafield_id": 300,
                    "is_required": "n",
                    "var_filter": null
                },
                {
                    "datafield_id": 301,
                    "is_required": "n",
                    "var_filter": null
                },
                {
                    "datafield_id": 302,
                    "is_required": "n",
                    "var_filter": null
                },
                {
                    "datafield_id": 303,
                    "is_required": "n",
                    "var_filter": null
                },
                {
                    "datafield_id": 304,
                    "is_required": "n",
                    "var_filter": null
                },
                {
                    "datafield_id": 306,
                    "is_required": "n",
                    "var_filter": null
                },
                {
                    "datafield_id": 305,
                    "is_required": "n",
                    "var_filter": null
                }
            ],
            "imports": [
                "nx-st-agentless"
            ],
            "object_name": "nx-st-agentless-alyvix-service-poller",
            "object_type": "template",
            "zone": "master"
        }
    },
    "Datafield": {
        "295": {
            "varname": "alyvix3_server_name",
            "caption": "Alyvix3 Server Name",
            "description": "Alyvix3 Server hostname/ip",
            "datatype": "Icinga\\Module\\Director\\DataType\\DataTypeString",
            "format": null,
            "originalId": "295",
            "settings": {},
            "category": null
        },
        "296": {
            "varname": "alyvix3_server_timeout",
            "caption": "Alyvix3 Server Timeout",
            "description": "Alyvix3 Testcase values older then timeout gives UNKNOWN (default: 0)",
            "datatype": "Icinga\\Module\\Director\\DataType\\DataTypeString",
            "format": null,
            "originalId": "296",
            "settings": {},
            "category": null
        },
        "297": {
            "varname": "alyvix3_testcase_user",
            "caption": "Alyvix3 Testcase User",
            "description": "Alyvix3 Testcase user",
            "datatype": "Icinga\\Module\\Director\\DataType\\DataTypeString",
            "format": null,
            "originalId": "297",
            "settings": {},
            "category": null
        },
        "298": {
            "varname": "alyvxi3_testcase_name",
            "caption": "Alyvxi3 Testcase Name",
            "description": "Alyvix3 Testcase name",
            "datatype": "Icinga\\Module\\Director\\DataType\\DataTypeString",
            "format": null,
            "originalId": "298",
            "settings": {},
            "category": null
        },
        "307": {
            "varname": "alyvix_testcase_name",
            "caption": "[NX] Testcase Name",
            "description": "Name of the corresponding Test case on Alyvix Service",
            "datatype": "Icinga\\Module\\Director\\DataType\\DataTypeString",
            "format": null,
            "originalId": "307",
            "settings": {
                "visibility": "visible"
            },
            "category": "Alyvix service Test case"
        },
        "308": {
            "varname": "alyvix_testcase_user",
            "caption": "[NX] Testcase User account",
            "description": "Account running the specific instance of Test case on the Alyvix node",
            "datatype": "Icinga\\Module\\Director\\DataType\\DataTypeString",
            "format": null,
            "originalId": "308",
            "settings": {
                "visibility": "visible"
            },
            "category": "Alyvix service Test case"
        },
        "309": {
            "varname": "alyvix_timeout",
            "caption": "[NX] Testcase outdated time",
            "description": "Number of seconds after Testcase data are considered outdated. This usually means the test case is not running anymore.",
            "datatype": "Icinga\\Module\\Director\\DataType\\DataTypeNumber",
            "format": null,
            "originalId": "309",
            "settings": {},
            "category": "Alyvix service Test case"
        },
        "299": {
            "varname": "nx_alyvix_service_default_testcase_timeout",
            "caption": "[NX] Default Testcase outdated time",
            "description": "Default number of seconds after Testcase data are considered outdated. This usually means the test case is not running anymore.",
            "datatype": "Icinga\\Module\\Director\\DataType\\DataTypeString",
            "format": null,
            "originalId": "299",
            "settings": {
                "visibility": "visible"
            },
            "category": "Alyvix service Test case"
        },
        "300": {
            "varname": "nx_alyvix_service_host_object",
            "caption": "[NX] Host object name",
            "description": "Name of the Host Object containing the Service Objects of the Testcases to monitor",
            "datatype": "Icinga\\Module\\Director\\DataType\\DataTypeString",
            "format": null,
            "originalId": "300",
            "settings": {
                "visibility": "visible"
            },
            "category": "Alyvix service"
        },
        "301": {
            "varname": "nx_alyvix_service_icinga_password",
            "caption": "[NX] Icinga2 credential Password",
            "description": "Icinga2 credential used to set the state of the Service Objects referring the Testcases to monitor",
            "datatype": "Icinga\\Module\\Director\\DataType\\DataTypeString",
            "format": null,
            "originalId": "301",
            "settings": {
                "visibility": "hidden"
            },
            "category": "Alyvix service"
        },
        "302": {
            "varname": "nx_alyvix_service_icinga_username",
            "caption": "[NX] Icinga2 credential Username",
            "description": "Icinga2 credential used to set the state of the Service Objects referring the Testcases to monitor",
            "datatype": "Icinga\\Module\\Director\\DataType\\DataTypeString",
            "format": null,
            "originalId": "302",
            "settings": {
                "visibility": "visible"
            },
            "category": "Alyvix service"
        },
        "303": {
            "varname": "nx_alyvix_service_icingaweb_password",
            "caption": "[NX] Icingawe2 credential Password",
            "description": "Icingaweb2 credential used to get the JTW Token to query Alyvix module for Testcase status",
            "datatype": "Icinga\\Module\\Director\\DataType\\DataTypeString",
            "format": null,
            "originalId": "303",
            "settings": {
                "visibility": "hidden"
            },
            "category": "Alyvix service"
        },
        "304": {
            "varname": "nx_alyvix_service_icingaweb_username",
            "caption": "[NX] Icingawe2 credential Username",
            "description": "Icingaweb2 credential used to get the JTW Token to query Alyvix module for Testcase status",
            "datatype": "Icinga\\Module\\Director\\DataType\\DataTypeString",
            "format": null,
            "originalId": "304",
            "settings": {
                "visibility": "visible"
            },
            "category": "Alyvix service"
        },
        "306": {
            "varname": "nx_alyvix_service_neteye_master_hostname",
            "caption": "[NX] NetEye Master FQDN",
            "description": "FQDN of the NetEye Master Instance providing Icinga2 and Icingaweb2",
            "datatype": "Icinga\\Module\\Director\\DataType\\DataTypeString",
            "format": null,
            "originalId": "306",
            "settings": {
                "visibility": "visible"
            },
            "category": "Alyvix service"
        },
        "305": {
            "varname": "nx_alyvix_service_node_name",
            "caption": "[NX] Alyvix node FQDN",
            "description": "Name of the Alyvix node as reported by NetEye Alyvix Module",
            "datatype": "Icinga\\Module\\Director\\DataType\\DataTypeString",
            "format": null,
            "originalId": "305",
            "settings": {
                "visibility": "visible"
            },
            "category": "Alyvix service"
        }
    },
    "DatafieldCategory": {
        "Alyvix service Test case": {
            "category_name": "Alyvix service Test case",
            "description": null,
            "originalId": "13"
        },
        "Alyvix service": {
            "category_name": "Alyvix service",
            "description": null,
            "originalId": "14"
        }
    }
}