{
    "Command": {
        "nx-c-centreon-kemp-loadbalancers": {
            "arguments": {
                "--critical-status": {
                    "description": "Set critical threshold for status (Default: '%{role} ne %{roleLast} or %{sync_status} !~ \/synchronized\/'). Can used special variables like: %{serial}, %{hostname}, %{sync_status}, %{role}, %{roleLast}",
                    "value": "$nx_centreon_kemp_loadbalancers_critical_status$"
                },
                "--filter-name": {
                    "description": "Filter virtual server name (can be a regexp).",
                    "value": "$nx_centreon_kemp_loadbalancers_filter_name$"
                },
                "--mode": {
                    "description": "Choose a mode",
                    "value": "$nx_centreon_kemp_loadbalancers_mode_list$"
                },
                "--warning-status": {
                    "description": "Set warning threshold for status (Default: ''). Can used special variables like: %{serial}, %{hostname}, %{sync_status}, %{role}, %{roleLast}",
                    "value": "$nx_centreon_kemp_loadbalancers_warning_status$"
                },
                "--warning-synchronized": {
                    "description": "Set thresholds",
                    "value": "$nx_centreon_kemp_loadbalancers_warning_synchronized$"
                }
            },
            "command": "\/usr\/lib\/centreon\/plugins\/centreon_kemp_loadbalancers.pl",
            "disabled": false,
            "fields": [],
            "imports": [
                "nx-ct-centreon-plugin-snmp",
                "nx-ct-centreon-plugin-retention"
            ],
            "is_string": null,
            "methods_execute": "PluginCheck",
            "object_name": "nx-c-centreon-kemp-loadbalancers",
            "object_type": "object",
            "timeout": null,
            "vars": {},
            "zone": null
        }
    }
}