{
    "ImportSource": {
        "nx-is-neteye-infrastructure-endpoints": {
            "description": null,
            "key_column": "endpoint_name",
            "modifiers": [
                {
                    "description": null,
                    "priority": "1",
                    "property_name": "endpoint_name",
                    "provider_class": "Icinga\\Module\\Director\\PropertyModifier\\PropertyModifierLowercase",
                    "settings": {},
                    "target_property": null
                },
                {
                    "description": null,
                    "priority": "2",
                    "property_name": "endpoint_host",
                    "provider_class": "Icinga\\Module\\Director\\PropertyModifier\\PropertyModifierLowercase",
                    "settings": {},
                    "target_property": null
                },
                {
                    "description": null,
                    "priority": "4",
                    "property_name": "endpoint_host",
                    "provider_class": "Icinga\\Module\\Director\\PropertyModifier\\PropertyModifierGetHostByName",
                    "settings": {
                        "on_failure": "null"
                    },
                    "target_property": "ip_address"
                },
                {
                    "description": null,
                    "priority": "5",
                    "property_name": "ip_address",
                    "provider_class": "Icinga\\Module\\Director\\PropertyModifier\\PropertyModifierRejectOrSelect",
                    "settings": {
                        "filter_method": "is_null",
                        "filter_string": "*",
                        "policy": "reject"
                    },
                    "target_property": null
                },
                {
                    "description": null,
                    "priority": "6",
                    "property_name": "is_clustered",
                    "provider_class": "Icinga\\Module\\Director\\PropertyModifier\\PropertyModifierMakeBoolean",
                    "settings": {
                        "on_invalid": "null"
                    },
                    "target_property": null
                },
                {
                    "description": null,
                    "priority": "7",
                    "property_name": "is_subsystem",
                    "provider_class": "Icinga\\Module\\Director\\PropertyModifier\\PropertyModifierMakeBoolean",
                    "settings": {
                        "on_invalid": "null"
                    },
                    "target_property": null
                },
                {
                    "description": null,
                    "priority": "8",
                    "property_name": "master_node",
                    "provider_class": "Icinga\\Module\\Director\\PropertyModifier\\PropertyModifierMakeBoolean",
                    "settings": {
                        "on_invalid": "null"
                    },
                    "target_property": null
                }
            ],
            "originalId": "4",
            "provider_class": "Icinga\\Module\\Director\\Import\\ImportSourceSql",
            "settings": {
                "column_cache": "endpoint_name, endpoint_host, endpoint_port, log_duration, zone_id, zone_name, disabled, parent_zone_name, master_node, is_clustered, is_subsystem, siblings",
                "query": "SELECT \r\n  e.object_name AS endpoint_name, \r\n  (\r\n    IF(\r\n      e.host IS NULL, e.object_name, e.host\r\n    )\r\n  ) AS endpoint_host, \r\n  e.port AS endpoint_port, \r\n  e.log_duration AS log_duration, \r\n  z.id AS zone_id, \r\n  z.object_name AS zone_name, \r\n  e.disabled AS disabled, \r\n  p.object_name AS parent_zone_name, \r\n  (\r\n    IF (\r\n      (\r\n        SELECT \r\n          COUNT(*) \r\n        FROM \r\n          icinga_zone \r\n        WHERE \r\n          (\r\n            id = z.id \r\n            AND object_name LIKE '%-master'\r\n          ) \r\n          OR (\r\n            id = z.id \r\n            AND object_name LIKE 'master'\r\n          )\r\n      )>= 1, \r\n      'true', \r\n      'false'\r\n    )\r\n  ) AS master_node, \r\n  (\r\n    IF (\r\n      (\r\n        SELECT \r\n          COUNT(*) \r\n        FROM \r\n          icinga_zone \r\n        WHERE \r\n          (\r\n            parent_id = e.zone_id \r\n            AND object_name LIKE '%cluster-satellite%'\r\n          ) \r\n          OR (\r\n            id = e.zone_id \r\n            AND object_name LIKE '%cluster-satellite%'\r\n          )\r\n      )>= 1, \r\n      'true', \r\n      'false'\r\n    )\r\n  ) AS is_clustered, \r\n  (\r\n    IF (\r\n      (\r\n        SELECT \r\n          COUNT(*) \r\n        FROM \r\n          icinga_zone \r\n        WHERE \r\n          (\r\n            id = z.id \r\n            AND object_name LIKE 'ness-%'\r\n          )\r\n      )>= 1, \r\n      'true', \r\n      'false'\r\n    )\r\n  ) AS is_subsystem, \r\n  (\r\n    SELECT \r\n      COUNT(*) \r\n    FROM \r\n      icinga_endpoint \r\n    WHERE \r\n      zone_id = e.zone_id\r\n  ) AS siblings \r\nFROM \r\n  icinga_endpoint e \r\n  INNER JOIN icinga_zone z ON e.zone_id = z.id \r\n  LEFT JOIN icinga_zone p ON z.parent_id = p.id;\r\n",
                "resource": "director"
            },
            "source_name": "nx-is-neteye-infrastructure-endpoints"
        },
        "nx-is-neteye-infrastructure-zones": {
            "description": null,
            "key_column": "name",
            "modifiers": [
                {
                    "description": null,
                    "priority": "1",
                    "property_name": "name",
                    "provider_class": "Icinga\\Module\\Director\\PropertyModifier\\PropertyModifierLowercase",
                    "settings": {},
                    "target_property": null
                },
                {
                    "description": null,
                    "priority": "2",
                    "property_name": "endpoint_name",
                    "provider_class": "Icinga\\Module\\Director\\PropertyModifier\\PropertyModifierLowercase",
                    "settings": {},
                    "target_property": null
                }
            ],
            "originalId": "7",
            "provider_class": "Icinga\\Module\\Director\\Import\\ImportSourceSql",
            "settings": {
                "column_cache": "name, endpoint_name, zone_name, child_zone_name",
                "query": "SELECT CONCAT(e.object_name, '!', c.object_name) AS NAME,\r\n       e.object_name AS endpoint_name,\r\n       z.object_name AS zone_name,\r\n       c.object_name AS child_zone_name\r\nFROM icinga_endpoint e\r\nINNER JOIN icinga_zone z ON e.zone_id = z.id\r\nINNER JOIN icinga_zone c ON z.id = c.parent_id;",
                "resource": "director"
            },
            "source_name": "nx-is-neteye-infrastructure-zones"
        },
        "nx-is-datalist-neteye-modules": {
            "description": null,
            "key_column": "entry_name",
            "modifiers": [],
            "originalId": "3",
            "provider_class": "Icinga\\Module\\Fileshipper\\ProvidedHook\\Director\\ImportSource",
            "settings": {
                "basedir": "\/neteye\/shared\/icingaweb2\/data\/modules\/fileshipper\/nx-file-data\/",
                "csv_delimiter": ",",
                "csv_enclosure": "\"",
                "file_format": "csv",
                "file_name": "nx-neteye-modules-list.csv"
            },
            "source_name": "nx-is-datalist-neteye-modules"
        }
    },
    "SyncRule": {
        "nx-sr-neteye-infrastructure-endpoints": {
            "description": null,
            "filter_expression": null,
            "object_type": "host",
            "originalId": "70",
            "properties": [
                {
                    "destination_field": "object_name",
                    "filter_expression": null,
                    "merge_policy": "override",
                    "priority": "1",
                    "source": "nx-is-neteye-infrastructure-endpoints",
                    "source_expression": "${endpoint_name}"
                },
                {
                    "destination_field": "address",
                    "filter_expression": null,
                    "merge_policy": "override",
                    "priority": "2",
                    "source": "nx-is-neteye-infrastructure-endpoints",
                    "source_expression": "${ip_address}"
                },
                {
                    "destination_field": "import",
                    "filter_expression": "master_node&&!is_subsystem",
                    "merge_policy": "override",
                    "priority": "3",
                    "source": "nx-is-neteye-infrastructure-endpoints",
                    "source_expression": "nx-ht-neteye-mainsystem-master"
                },
                {
                    "destination_field": "import",
                    "filter_expression": "master_node&&is_subsystem",
                    "merge_policy": "override",
                    "priority": "4",
                    "source": "nx-is-neteye-infrastructure-endpoints",
                    "source_expression": "nx-ht-neteye-subsystem-master"
                },
                {
                    "destination_field": "import",
                    "filter_expression": "!master_node&&!is_subsystem&&is_clustered",
                    "merge_policy": "override",
                    "priority": "5",
                    "source": "nx-is-neteye-infrastructure-endpoints",
                    "source_expression": "nx-ht-neteye-mainsystem-cluster-node"
                },
                {
                    "destination_field": "import",
                    "filter_expression": "!master_node&&is_subsystem",
                    "merge_policy": "override",
                    "priority": "6",
                    "source": "nx-is-neteye-infrastructure-endpoints",
                    "source_expression": "nx-ht-neteye-subsystem-cluster-node"
                },
                {
                    "destination_field": "import",
                    "filter_expression": "!master_node&&!is_clustered",
                    "merge_policy": "override",
                    "priority": "7",
                    "source": "nx-is-neteye-infrastructure-endpoints",
                    "source_expression": "nx-ht-neteye-satellite"
                },
                {
                    "destination_field": "import",
                    "filter_expression": null,
                    "merge_policy": "override",
                    "priority": "8",
                    "source": "nx-is-neteye-infrastructure-endpoints",
                    "source_expression": "nx-ht-status-ping"
                },
                {
                    "destination_field": "import",
                    "filter_expression": null,
                    "merge_policy": "override",
                    "priority": "9",
                    "source": "nx-is-neteye-infrastructure-endpoints",
                    "source_expression": "nx-ht-type-custom"
                },
                {
                    "destination_field": "display_name",
                    "filter_expression": "master_node&&!is_subsystem&&siblings=1",
                    "merge_policy": "override",
                    "priority": "10",
                    "source": "nx-is-neteye-infrastructure-endpoints",
                    "source_expression": "NetEye Master zone Endpoint"
                },
                {
                    "destination_field": "display_name",
                    "filter_expression": "master_node&&is_subsystem&&siblings>1",
                    "merge_policy": "override",
                    "priority": "11",
                    "source": "nx-is-neteye-infrastructure-endpoints",
                    "source_expression": "NetEye Sub Master zone Endpoint ${endpoint_name}"
                },
                {
                    "destination_field": "display_name",
                    "filter_expression": "master_node&&is_subsystem&&siblings=1",
                    "merge_policy": "override",
                    "priority": "12",
                    "source": "nx-is-neteye-infrastructure-endpoints",
                    "source_expression": "NetEye Sub Master zone Endpoint"
                },
                {
                    "destination_field": "display_name",
                    "filter_expression": "!master_node&&is_subsystem&&is_clustered&&siblings>1",
                    "merge_policy": "override",
                    "priority": "13",
                    "source": "nx-is-neteye-infrastructure-endpoints",
                    "source_expression": "NetEye Sub Cluster node ${endpoint_name}"
                },
                {
                    "destination_field": "display_name",
                    "filter_expression": "!master_node&&!is_subsystem&&is_clustered&&siblings>1",
                    "merge_policy": "override",
                    "priority": "14",
                    "source": "nx-is-neteye-infrastructure-endpoints",
                    "source_expression": "NetEye Cluster node ${endpoint_name}"
                },
                {
                    "destination_field": "display_name",
                    "filter_expression": "!master_node&&!is_clustered&&siblings=1",
                    "merge_policy": "override",
                    "priority": "15",
                    "source": "nx-is-neteye-infrastructure-endpoints",
                    "source_expression": "NetEye ${zone_name} zone Satellite"
                },
                {
                    "destination_field": "display_name",
                    "filter_expression": "!master_node&&!is_clustered&&siblings>1",
                    "merge_policy": "override",
                    "priority": "16",
                    "source": "nx-is-neteye-infrastructure-endpoints",
                    "source_expression": "NetEye ${zone_name} zone Satellite ${endpoint_name}"
                },
                {
                    "destination_field": "zone",
                    "filter_expression": "is_subsystem",
                    "merge_policy": "override",
                    "priority": "17",
                    "source": "nx-is-neteye-infrastructure-endpoints",
                    "source_expression": "${parent_zone_name}"
                },
                {
                    "destination_field": "zone",
                    "filter_expression": "!is_subsystem&&!master_node",
                    "merge_policy": "override",
                    "priority": "18",
                    "source": "nx-is-neteye-infrastructure-endpoints",
                    "source_expression": "${parent_zone_name}"
                },
                {
                    "destination_field": "zone",
                    "filter_expression": "!master_node&&!is_clustered",
                    "merge_policy": "override",
                    "priority": "19",
                    "source": "nx-is-neteye-infrastructure-endpoints",
                    "source_expression": "${parent_zone_name}"
                },
                {
                    "destination_field": "vars.creation_rule",
                    "filter_expression": null,
                    "merge_policy": "override",
                    "priority": "20",
                    "source": "nx-is-neteye-infrastructure-endpoints",
                    "source_expression": "nx-sr-neteye-infrastructure-endpoints"
                },
                {
                    "destination_field": "vars.nx_neteye_cluster",
                    "filter_expression": null,
                    "merge_policy": "override",
                    "priority": "21",
                    "source": "nx-is-neteye-infrastructure-endpoints",
                    "source_expression": "${is_clustered}"
                },
                {
                    "destination_field": "vars.cluster_zone",
                    "filter_expression": null,
                    "merge_policy": "override",
                    "priority": "22",
                    "source": "nx-is-neteye-infrastructure-endpoints",
                    "source_expression": "${zone_name}"
                }
            ],
            "purge_existing": "y",
            "rule_name": "nx-sr-neteye-infrastructure-endpoints",
            "update_policy": "merge",
            "purge_action": "delete"
        },
        "nx-sr-neteye-infrastructure-zones": {
            "description": null,
            "filter_expression": null,
            "object_type": "service",
            "originalId": "71",
            "properties": [
                {
                    "destination_field": "object_name",
                    "filter_expression": null,
                    "merge_policy": "override",
                    "priority": "2",
                    "source": "nx-is-neteye-infrastructure-zones",
                    "source_expression": "Zone ${child_zone_name} Status"
                },
                {
                    "destination_field": "host",
                    "filter_expression": null,
                    "merge_policy": "override",
                    "priority": "3",
                    "source": "nx-is-neteye-infrastructure-zones",
                    "source_expression": "${endpoint_name}"
                },
                {
                    "destination_field": "import",
                    "filter_expression": null,
                    "merge_policy": "override",
                    "priority": "4",
                    "source": "nx-is-neteye-infrastructure-zones",
                    "source_expression": "nx-st-agent-icinga-cluster-zone-performance"
                },
                {
                    "destination_field": "import",
                    "filter_expression": null,
                    "merge_policy": "override",
                    "priority": "5",
                    "source": "nx-is-neteye-infrastructure-zones",
                    "source_expression": "nx-st-type-custom"
                },
                {
                    "destination_field": "vars.cluster_zone",
                    "filter_expression": null,
                    "merge_policy": "override",
                    "priority": "6",
                    "source": "nx-is-neteye-infrastructure-zones",
                    "source_expression": "${child_zone_name}"
                }
            ],
            "purge_existing": "y",
            "rule_name": "nx-sr-neteye-infrastructure-zones",
            "update_policy": "merge",
            "purge_action": "delete"
        },
        "nx-sr-neteye-ip-duplicated-zones": {
            "description": null,
            "filter_expression": null,
            "object_type": "service",
            "originalId": "104",
            "properties": [
                {
                    "destination_field": "object_name",
                    "filter_expression": null,
                    "merge_policy": "override",
                    "priority": "2",
                    "source": "nx-is-neteye-infrastructure-zones",
                    "source_expression": "Zone ${child_zone_name} duplicated IPs"
                },
                {
                    "destination_field": "host",
                    "filter_expression": null,
                    "merge_policy": "override",
                    "priority": "3",
                    "source": "nx-is-neteye-infrastructure-zones",
                    "source_expression": "${endpoint_name}"
                },
                {
                    "destination_field": "import",
                    "filter_expression": null,
                    "merge_policy": "override",
                    "priority": "4",
                    "source": "nx-is-neteye-infrastructure-zones",
                    "source_expression": "nx-st-agent-icinga-duplicated-ips"
                },
                {
                    "destination_field": "import",
                    "filter_expression": null,
                    "merge_policy": "override",
                    "priority": "5",
                    "source": "nx-is-neteye-infrastructure-zones",
                    "source_expression": "nx-st-type-custom"
                },
                {
                    "destination_field": "vars.cluster_zone",
                    "filter_expression": null,
                    "merge_policy": "override",
                    "priority": "7",
                    "source": "nx-is-neteye-infrastructure-zones",
                    "source_expression": "master"
                },
                {
                    "destination_field": "vars.nx_zone_name",
                    "filter_expression": null,
                    "merge_policy": "override",
                    "priority": "12",
                    "source": "nx-is-neteye-infrastructure-zones",
                    "source_expression": "${child_zone_name}"
                }
            ],
            "purge_action": "delete",
            "purge_existing": "y",
            "rule_name": "nx-sr-neteye-ip-duplicated-zones",
            "update_policy": "override"
        },
        "nx-sr-datalist-neteye-modules": {
            "description": null,
            "filter_expression": null,
            "object_type": "datalistEntry",
            "originalId": "99",
            "properties": [
                {
                    "destination_field": "list_id",
                    "filter_expression": null,
                    "merge_policy": "override",
                    "priority": "1",
                    "source": "nx-is-datalist-neteye-modules",
                    "source_expression": "[NX] NetEye Modules List"
                },
                {
                    "destination_field": "entry_name",
                    "filter_expression": null,
                    "merge_policy": "override",
                    "priority": "2",
                    "source": "nx-is-datalist-neteye-modules",
                    "source_expression": "${entry_name}"
                },
                {
                    "destination_field": "entry_value",
                    "filter_expression": null,
                    "merge_policy": "override",
                    "priority": "3",
                    "source": "nx-is-datalist-neteye-modules",
                    "source_expression": "${entry_value}"
                }
            ],
            "purge_existing": "n",
            "rule_name": "nx-sr-datalist-neteye-modules",
            "update_policy": "merge"
        }
    },
    "DirectorJob": {
        "nx-j-import-datalist-neteye-modules": {
            "job_name": "nx-j-import-datalist-neteye-modules",
            "job_class": "Icinga\\Module\\Director\\Job\\ImportJob",
            "disabled": "n",
            "run_interval": "900",
            "originalId": "99",
            "settings": {
                "run_import": "y",
                "source": "nx-is-datalist-neteye-modules"
            }
        },
        "nx-j-sync-datalist-neteye-modules": {
            "job_name": "nx-j-sync-datalist-neteye-modules",
            "job_class": "Icinga\\Module\\Director\\Job\\SyncJob",
            "disabled": "n",
            "run_interval": "900",
            "originalId": "98",
            "settings": {
                "apply_changes": true,
                "rule": "nx-sr-datalist-neteye-modules"
            }
        }
    }
}