{
    "ServiceSet": {
        "nx-ss-network-snmp-basic": {
            "assign_filter": "host.vars.nx_enable_nep_ss=true&!\"nx-ss-network-snmp-basic\"=host.vars.nx_nep_ss_to_exclude&host.vars.nx_hardware_vendor=\"generic\"&(\"nx-ht-network-wifi-snmp\"=host.templates|\"nx-ht-network-load-balancer-snmp\"=host.templates|\"nx-ht-network-switch-snmp\"=host.templates|\"nx-ht-network-firewall-snmp\"=host.templates|\"nx-ht-network-router-snmp\"=host.templates)",
            "description": "Basic performance set for network object. It includes:\r\n - CPU Load\r\n - Hardware Health\r\n - Memory Usage",
            "object_name": "nx-ss-network-snmp-basic",
            "object_type": "template",
            "services": {
                "CPU Load": {
                    "action_url": null,
                    "apply_for": null,
                    "assign_filter": null,
                    "check_command": null,
                    "check_interval": null,
                    "check_period": null,
                    "check_timeout": null,
                    "command_endpoint": null,
                    "disabled": false,
                    "display_name": null,
                    "enable_active_checks": null,
                    "enable_event_handler": null,
                    "enable_flapping": null,
                    "enable_notifications": null,
                    "enable_passive_checks": null,
                    "enable_perfdata": null,
                    "event_command": null,
                    "fields": [],
                    "flapping_threshold_high": null,
                    "flapping_threshold_low": null,
                    "groups": [],
                    "host": null,
                    "icon_image": "img/nep/service/cpu.png",
                    "icon_image_alt": null,
                    "imports": [
                        "nx-st-agentless-snmp-nwc-health",
                        "nx-st-type-custom"
                    ],
                    "max_check_attempts": null,
                    "notes": null,
                    "notes_url": null,
                    "object_name": "CPU Load",
                    "object_type": "object",
                    "retry_interval": null,
                    "service_set": null,
                    "template_choice": null,
                    "use_agent": null,
                    "use_var_overrides": null,
                    "vars": {
                        "nwc_health_critical": "90",
                        "nwc_health_warning": "70",
                        "nx_nwc_health_mode": "cpu-load"
                    },
                    "volatile": null,
                    "zone": null
                },
                "Memory Usage": {
                    "action_url": null,
                    "apply_for": null,
                    "assign_filter": null,
                    "check_command": null,
                    "check_interval": null,
                    "check_period": null,
                    "check_timeout": null,
                    "command_endpoint": null,
                    "disabled": false,
                    "display_name": null,
                    "enable_active_checks": null,
                    "enable_event_handler": null,
                    "enable_flapping": null,
                    "enable_notifications": null,
                    "enable_passive_checks": null,
                    "enable_perfdata": null,
                    "event_command": null,
                    "fields": [],
                    "flapping_threshold_high": null,
                    "flapping_threshold_low": null,
                    "groups": [],
                    "host": null,
                    "icon_image": "img/nep/service/ram.png",
                    "icon_image_alt": null,
                    "imports": [
                        "nx-st-agentless-snmp-nwc-health",
                        "nx-st-type-custom"
                    ],
                    "max_check_attempts": null,
                    "notes": null,
                    "notes_url": null,
                    "object_name": "Memory Usage",
                    "object_type": "object",
                    "retry_interval": null,
                    "service_set": null,
                    "template_choice": null,
                    "use_agent": null,
                    "use_var_overrides": null,
                    "vars": {
                        "nx_nwc_health_mode": "memory-usage"
                    },
                    "volatile": null,
                    "zone": null
                },
                "HW Health": {
                    "action_url": null,
                    "apply_for": null,
                    "assign_filter": null,
                    "check_command": null,
                    "check_interval": null,
                    "check_period": null,
                    "check_timeout": null,
                    "command_endpoint": null,
                    "disabled": false,
                    "display_name": null,
                    "enable_active_checks": null,
                    "enable_event_handler": null,
                    "enable_flapping": null,
                    "enable_notifications": null,
                    "enable_passive_checks": null,
                    "enable_perfdata": null,
                    "event_command": null,
                    "fields": [],
                    "flapping_threshold_high": null,
                    "flapping_threshold_low": null,
                    "groups": [],
                    "host": null,
                    "icon_image": "img/nep/service/hwhealth.png",
                    "icon_image_alt": null,
                    "imports": [
                        "nx-st-agentless-snmp-nwc-health",
                        "nx-st-type-custom"
                    ],
                    "max_check_attempts": null,
                    "notes": null,
                    "notes_url": null,
                    "object_name": "HW Health",
                    "object_type": "object",
                    "retry_interval": null,
                    "service_set": null,
                    "template_choice": null,
                    "use_agent": null,
                    "use_var_overrides": null,
                    "vars": {},
                    "volatile": null,
                    "zone": null
                }
            }
        },
        "nx-ss-network-snmp-extra": {
            "assign_filter": null,
            "description": "Extra performance set for network object. It includes:\r\n - Interface Health\r\n - Interfaces traffic\r\n - Stack State",
            "object_name": "nx-ss-network-snmp-extra",
            "object_type": "template",
            "services": {
                "Interfaces traffic": {
                    "action_url": null,
                    "apply_for": null,
                    "assign_filter": null,
                    "check_command": null,
                    "check_interval": null,
                    "check_period": null,
                    "check_timeout": null,
                    "command_endpoint": null,
                    "disabled": false,
                    "display_name": null,
                    "enable_active_checks": null,
                    "enable_event_handler": null,
                    "enable_flapping": null,
                    "enable_notifications": null,
                    "enable_passive_checks": null,
                    "enable_perfdata": null,
                    "event_command": null,
                    "fields": [],
                    "flapping_threshold_high": null,
                    "flapping_threshold_low": null,
                    "groups": [],
                    "host": null,
                    "icon_image": null,
                    "icon_image_alt": null,
                    "imports": [
                        "nx-st-agentless-snmp-nwc-health",
                        "nx-st-type-custom"
                    ],
                    "max_check_attempts": null,
                    "notes": null,
                    "notes_url": null,
                    "object_name": "Interfaces traffic",
                    "object_type": "object",
                    "retry_interval": null,
                    "service_set": null,
                    "template_choice": null,
                    "use_agent": null,
                    "use_var_overrides": null,
                    "vars": {
                        "interfaces_down_is_ok": true,
                        "nx_nwc_health_mode": "interface-usage"
                    },
                    "volatile": null,
                    "zone": null
                },
                "Stack State": {
                    "action_url": null,
                    "apply_for": null,
                    "assign_filter": null,
                    "check_command": null,
                    "check_interval": null,
                    "check_period": null,
                    "check_timeout": null,
                    "command_endpoint": null,
                    "disabled": false,
                    "display_name": null,
                    "enable_active_checks": null,
                    "enable_event_handler": null,
                    "enable_flapping": null,
                    "enable_notifications": null,
                    "enable_passive_checks": null,
                    "enable_perfdata": null,
                    "event_command": null,
                    "fields": [],
                    "flapping_threshold_high": null,
                    "flapping_threshold_low": null,
                    "groups": [],
                    "host": null,
                    "icon_image": "img/nep/service/stack.png",
                    "icon_image_alt": null,
                    "imports": [
                        "nx-st-agentless-snmp-nwc-health",
                        "nx-st-type-custom"
                    ],
                    "max_check_attempts": null,
                    "notes": null,
                    "notes_url": null,
                    "object_name": "Stack State",
                    "object_type": "object",
                    "retry_interval": null,
                    "service_set": null,
                    "template_choice": null,
                    "use_agent": null,
                    "use_var_overrides": null,
                    "vars": {
                        "nx_nwc_health_mode": "interface-stack-status"
                    },
                    "volatile": null,
                    "zone": null
                },
                "Interface Health": {
                    "action_url": null,
                    "apply_for": null,
                    "assign_filter": null,
                    "check_command": null,
                    "check_interval": null,
                    "check_period": null,
                    "check_timeout": null,
                    "command_endpoint": null,
                    "disabled": false,
                    "display_name": null,
                    "enable_active_checks": null,
                    "enable_event_handler": null,
                    "enable_flapping": null,
                    "enable_notifications": null,
                    "enable_passive_checks": null,
                    "enable_perfdata": null,
                    "event_command": null,
                    "fields": [],
                    "flapping_threshold_high": null,
                    "flapping_threshold_low": null,
                    "groups": [],
                    "host": null,
                    "icon_image": null,
                    "icon_image_alt": null,
                    "imports": [
                        "nx-st-agentless-snmp-nwc-health",
                        "nx-st-type-custom"
                    ],
                    "max_check_attempts": null,
                    "notes": null,
                    "notes_url": null,
                    "object_name": "Interface Health",
                    "object_type": "object",
                    "retry_interval": null,
                    "service_set": null,
                    "template_choice": null,
                    "use_agent": null,
                    "use_var_overrides": null,
                    "vars": {
                        "nx_nwc_health_mode": "interface-health"
                    },
                    "volatile": null,
                    "zone": null
                }
            }
        },
        "nx-ss-snmp-uptime": {
            "assign_filter": "host.vars.nx_enable_nep_ss=true&!\"nx-ss-snmp-uptime\"=host.vars.nx_nep_ss_to_exclude&\"nx-ht-snmp\"=host.templates&!\"nx-ht-network-printer-snmp\"=host.templates",
            "description": "Uptime check for snmp object",
            "object_name": "nx-ss-snmp-uptime",
            "object_type": "template",
            "services": {
                "Uptime": {
                    "action_url": null,
                    "apply_for": null,
                    "assign_filter": null,
                    "check_command": null,
                    "check_interval": null,
                    "check_period": null,
                    "check_timeout": null,
                    "command_endpoint": null,
                    "disabled": false,
                    "display_name": null,
                    "enable_active_checks": null,
                    "enable_event_handler": null,
                    "enable_flapping": null,
                    "enable_notifications": null,
                    "enable_passive_checks": null,
                    "enable_perfdata": null,
                    "event_command": null,
                    "fields": [],
                    "flapping_threshold_high": null,
                    "flapping_threshold_low": null,
                    "groups": [],
                    "host": null,
                    "icon_image": "img/nep/service/uptime.png",
                    "icon_image_alt": null,
                    "imports": [
                        "nx-st-agentless-snmp-nwc-health",
                        "nx-st-type-custom"
                    ],
                    "max_check_attempts": null,
                    "notes": null,
                    "notes_url": null,
                    "object_name": "Uptime",
                    "object_type": "object",
                    "retry_interval": null,
                    "service_set": null,
                    "template_choice": null,
                    "use_agent": null,
                    "use_var_overrides": null,
                    "vars": {
                        "nx_nwc_health_mode": "uptime"
                    },
                    "volatile": null,
                    "zone": null
                }
            }
        },
        "nx-ss-snmp-bgp-peer-status": {
            "assign_filter": null,
            "description": "BGP peer status check for l3 switches and routing devices.",
            "object_name": "nx-ss-snmp-bgp-peer-status",
            "object_type": "template",
            "services": {
                "BGP peer status": {
                    "action_url": null,
                    "apply_for": null,
                    "assign_filter": null,
                    "check_command": null,
                    "check_interval": null,
                    "check_period": null,
                    "check_timeout": null,
                    "command_endpoint": null,
                    "disabled": false,
                    "display_name": null,
                    "enable_active_checks": null,
                    "enable_event_handler": null,
                    "enable_flapping": null,
                    "enable_notifications": null,
                    "enable_passive_checks": null,
                    "enable_perfdata": null,
                    "event_command": null,
                    "fields": [],
                    "flapping_threshold_high": null,
                    "flapping_threshold_low": null,
                    "groups": [],
                    "host": null,
                    "icon_image": null,
                    "icon_image_alt": null,
                    "imports": [
                        "nx-st-agentless-snmp-nwc-health",
                        "nx-st-type-custom"
                    ],
                    "max_check_attempts": null,
                    "notes": null,
                    "notes_url": null,
                    "object_name": "BGP Peer Status",
                    "object_type": "object",
                    "retry_interval": null,
                    "service_set": null,
                    "template_choice": null,
                    "use_agent": null,
                    "use_var_overrides": null,
                    "vars": {
                        "nx_nwc_health_mode": "bgp-peer-status"
                    },
                    "volatile": null,
                    "zone": null
                }
            }
        }
        }
}