{
    "HostTemplate": {
        "nx-ht-network-ipmi": {
            "accept_config": null,
            "action_url": null,
            "address": null,
            "address6": null,
            "api_key": null,
            "check_command": null,
            "check_interval": null,
            "check_period": null,
            "check_timeout": null,
            "command_endpoint": null,
            "disabled": false,
            "display_name": null,
            "enable_active_checks": null,
            "enable_event_handler": null,
            "enable_flapping": null,
            "enable_notifications": null,
            "enable_passive_checks": null,
            "enable_perfdata": null,
            "event_command": null,
            "fields": [],
            "flapping_threshold_high": null,
            "flapping_threshold_low": null,
            "groups": [],
            "has_agent": null,
            "icon_image": null,
            "icon_image_alt": null,
            "imports": [
                "nx-ht-network"
            ],
            "master_should_connect": null,
            "max_check_attempts": null,
            "notes": null,
            "notes_url": null,
            "object_name": "nx-ht-network-ipmi",
            "object_type": "template",
            "retry_interval": null,
            "template_choice": null,
            "vars": {},
            "volatile": null,
            "zone": null
        },
        "nx-ht-network-ipmi-snmp": {
            "accept_config": null,
            "action_url": null,
            "address": null,
            "address6": null,
            "api_key": null,
            "check_command": null,
            "check_interval": null,
            "check_period": null,
            "check_timeout": null,
            "command_endpoint": null,
            "disabled": false,
            "display_name": null,
            "enable_active_checks": null,
            "enable_event_handler": null,
            "enable_flapping": null,
            "enable_notifications": null,
            "enable_passive_checks": null,
            "enable_perfdata": null,
            "event_command": null,
            "fields": [],
            "flapping_threshold_high": null,
            "flapping_threshold_low": null,
            "groups": [],
            "has_agent": null,
            "icon_image": null,
            "icon_image_alt": null,
            "imports": [
                "nx-ht-network-ipmi",
                "nx-ht-snmp"
            ],
            "master_should_connect": null,
            "max_check_attempts": null,
            "notes": null,
            "notes_url": null,
            "object_name": "nx-ht-network-ipmi-snmp",
            "object_type": "template",
            "retry_interval": null,
            "template_choice": null,
            "vars": {},
            "volatile": null,
            "zone": null
        },
        "nx-ht-network-load-balancer": {
            "accept_config": null,
            "action_url": null,
            "address": null,
            "address6": null,
            "api_key": null,
            "check_command": null,
            "check_interval": null,
            "check_period": null,
            "check_timeout": null,
            "command_endpoint": null,
            "disabled": false,
            "display_name": null,
            "enable_active_checks": null,
            "enable_event_handler": null,
            "enable_flapping": null,
            "enable_notifications": null,
            "enable_passive_checks": null,
            "enable_perfdata": null,
            "event_command": null,
            "fields": [],
            "flapping_threshold_high": null,
            "flapping_threshold_low": null,
            "groups": [],
            "has_agent": null,
            "icon_image": "img/nep/host/loadbalance.png",
            "icon_image_alt": null,
            "imports": [
                "nx-ht-network"
            ],
            "master_should_connect": null,
            "max_check_attempts": null,
            "notes": null,
            "notes_url": null,
            "object_name": "nx-ht-network-load-balancer",
            "object_type": "template",
            "retry_interval": null,
            "template_choice": null,
            "vars": {},
            "volatile": null,
            "zone": null
        },
        "nx-ht-network-load-balancer-snmp": {
            "accept_config": null,
            "action_url": null,
            "address": null,
            "address6": null,
            "api_key": null,
            "check_command": null,
            "check_interval": null,
            "check_period": null,
            "check_timeout": null,
            "command_endpoint": null,
            "disabled": false,
            "display_name": null,
            "enable_active_checks": null,
            "enable_event_handler": null,
            "enable_flapping": null,
            "enable_notifications": null,
            "enable_passive_checks": null,
            "enable_perfdata": null,
            "event_command": null,
            "fields": [],
            "flapping_threshold_high": null,
            "flapping_threshold_low": null,
            "groups": [],
            "has_agent": null,
            "icon_image": null,
            "icon_image_alt": null,
            "imports": [
                "nx-ht-network-load-balancer",
                "nx-ht-snmp"
            ],
            "master_should_connect": null,
            "max_check_attempts": null,
            "notes": null,
            "notes_url": null,
            "object_name": "nx-ht-network-load-balancer-snmp",
            "object_type": "template",
            "retry_interval": null,
            "template_choice": null,
            "vars": {},
            "volatile": null,
            "zone": null
        },
        "nx-ht-network-wifi": {
            "accept_config": null,
            "action_url": null,
            "address": null,
            "address6": null,
            "api_key": null,
            "check_command": null,
            "check_interval": null,
            "check_period": null,
            "check_timeout": null,
            "command_endpoint": null,
            "disabled": false,
            "display_name": null,
            "enable_active_checks": null,
            "enable_event_handler": null,
            "enable_flapping": null,
            "enable_notifications": null,
            "enable_passive_checks": null,
            "enable_perfdata": null,
            "event_command": null,
            "fields": [],
            "flapping_threshold_high": null,
            "flapping_threshold_low": null,
            "groups": [],
            "has_agent": null,
            "icon_image": "img/nep/host/wireless.png",
            "icon_image_alt": null,
            "imports": [
                "nx-ht-network"
            ],
            "master_should_connect": null,
            "max_check_attempts": null,
            "notes": null,
            "notes_url": null,
            "object_name": "nx-ht-network-wifi",
            "object_type": "template",
            "retry_interval": null,
            "template_choice": null,
            "vars": {},
            "volatile": null,
            "zone": null
        },
        "nx-ht-network-wifi-snmp": {
            "accept_config": null,
            "action_url": null,
            "address": null,
            "address6": null,
            "api_key": null,
            "check_command": null,
            "check_interval": null,
            "check_period": null,
            "check_timeout": null,
            "command_endpoint": null,
            "disabled": false,
            "display_name": null,
            "enable_active_checks": null,
            "enable_event_handler": null,
            "enable_flapping": null,
            "enable_notifications": null,
            "enable_passive_checks": null,
            "enable_perfdata": null,
            "event_command": null,
            "fields": [],
            "flapping_threshold_high": null,
            "flapping_threshold_low": null,
            "groups": [],
            "has_agent": null,
            "icon_image": null,
            "icon_image_alt": null,
            "imports": [
                "nx-ht-network-wifi",
                "nx-ht-snmp"
            ],
            "master_should_connect": null,
            "max_check_attempts": null,
            "notes": null,
            "notes_url": null,
            "object_name": "nx-ht-network-wifi-snmp",
            "object_type": "template",
            "retry_interval": null,
            "template_choice": null,
            "vars": {},
            "volatile": null,
            "zone": null
        },
        "nx-ht-network-voip": {
            "accept_config": null,
            "action_url": null,
            "address": null,
            "address6": null,
            "api_key": null,
            "check_command": null,
            "check_interval": null,
            "check_period": null,
            "check_timeout": null,
            "command_endpoint": null,
            "disabled": false,
            "display_name": null,
            "enable_active_checks": null,
            "enable_event_handler": null,
            "enable_flapping": null,
            "enable_notifications": null,
            "enable_passive_checks": null,
            "enable_perfdata": null,
            "event_command": null,
            "fields": [],
            "flapping_threshold_high": null,
            "flapping_threshold_low": null,
            "groups": [],
            "has_agent": null,
            "icon_image": null,
            "icon_image_alt": null,
            "imports": [
                "nx-ht-network"
            ],
            "master_should_connect": null,
            "max_check_attempts": null,
            "notes": null,
            "notes_url": null,
            "object_name": "nx-ht-network-voip",
            "object_type": "template",
            "retry_interval": null,
            "template_choice": null,
            "vars": {},
            "volatile": null,
            "zone": null
        },
        "nx-ht-network-firewall": {
            "accept_config": null,
            "action_url": null,
            "address": null,
            "address6": null,
            "api_key": null,
            "check_command": null,
            "check_interval": null,
            "check_period": null,
            "check_timeout": null,
            "command_endpoint": null,
            "disabled": false,
            "display_name": null,
            "enable_active_checks": null,
            "enable_event_handler": null,
            "enable_flapping": null,
            "enable_notifications": null,
            "enable_passive_checks": null,
            "enable_perfdata": null,
            "event_command": null,
            "fields": [],
            "flapping_threshold_high": null,
            "flapping_threshold_low": null,
            "groups": [],
            "has_agent": null,
            "icon_image": null,
            "icon_image_alt": null,
            "imports": [
                "nx-ht-network"
            ],
            "master_should_connect": null,
            "max_check_attempts": null,
            "notes": null,
            "notes_url": null,
            "object_name": "nx-ht-network-firewall",
            "object_type": "template",
            "retry_interval": null,
            "template_choice": null,
            "vars": {},
            "volatile": null,
            "zone": null
        },
        "nx-ht-network-firewall-snmp": {
            "accept_config": null,
            "action_url": null,
            "address": null,
            "address6": null,
            "api_key": null,
            "check_command": null,
            "check_interval": null,
            "check_period": null,
            "check_timeout": null,
            "command_endpoint": null,
            "disabled": false,
            "display_name": null,
            "enable_active_checks": null,
            "enable_event_handler": null,
            "enable_flapping": null,
            "enable_notifications": null,
            "enable_passive_checks": null,
            "enable_perfdata": null,
            "event_command": null,
            "fields": [],
            "flapping_threshold_high": null,
            "flapping_threshold_low": null,
            "groups": [],
            "has_agent": null,
            "icon_image": null,
            "icon_image_alt": null,
            "imports": [
                "nx-ht-network-firewall",
                "nx-ht-snmp"
            ],
            "master_should_connect": null,
            "max_check_attempts": null,
            "notes": null,
            "notes_url": null,
            "object_name": "nx-ht-network-firewall-snmp",
            "object_type": "template",
            "retry_interval": null,
            "template_choice": null,
            "vars": {},
            "volatile": null,
            "zone": null
        },
        "nx-ht-network-router": {
            "accept_config": null,
            "action_url": null,
            "address": null,
            "address6": null,
            "api_key": null,
            "check_command": null,
            "check_interval": null,
            "check_period": null,
            "check_timeout": null,
            "command_endpoint": null,
            "disabled": false,
            "display_name": null,
            "enable_active_checks": null,
            "enable_event_handler": null,
            "enable_flapping": null,
            "enable_notifications": null,
            "enable_passive_checks": null,
            "enable_perfdata": null,
            "event_command": null,
            "fields": [],
            "flapping_threshold_high": null,
            "flapping_threshold_low": null,
            "groups": [],
            "has_agent": null,
            "icon_image": null,
            "icon_image_alt": null,
            "imports": [
                "nx-ht-network"
            ],
            "master_should_connect": null,
            "max_check_attempts": null,
            "notes": null,
            "notes_url": null,
            "object_name": "nx-ht-network-router",
            "object_type": "template",
            "retry_interval": null,
            "template_choice": null,
            "vars": {},
            "volatile": null,
            "zone": null
        },
        "nx-ht-network-router-snmp": {
            "accept_config": null,
            "action_url": null,
            "address": null,
            "address6": null,
            "api_key": null,
            "check_command": null,
            "check_interval": null,
            "check_period": null,
            "check_timeout": null,
            "command_endpoint": null,
            "disabled": false,
            "display_name": null,
            "enable_active_checks": null,
            "enable_event_handler": null,
            "enable_flapping": null,
            "enable_notifications": null,
            "enable_passive_checks": null,
            "enable_perfdata": null,
            "event_command": null,
            "fields": [],
            "flapping_threshold_high": null,
            "flapping_threshold_low": null,
            "groups": [],
            "has_agent": null,
            "icon_image": null,
            "icon_image_alt": null,
            "imports": [
                "nx-ht-network-router",
                "nx-ht-snmp"
            ],
            "master_should_connect": null,
            "max_check_attempts": null,
            "notes": null,
            "notes_url": null,
            "object_name": "nx-ht-network-router-snmp",
            "object_type": "template",
            "retry_interval": null,
            "template_choice": null,
            "vars": {},
            "volatile": null,
            "zone": null
        },
        "nx-ht-network-switch": {
            "accept_config": null,
            "action_url": null,
            "address": null,
            "address6": null,
            "api_key": null,
            "check_command": null,
            "check_interval": null,
            "check_period": null,
            "check_timeout": null,
            "command_endpoint": null,
            "disabled": false,
            "display_name": null,
            "enable_active_checks": null,
            "enable_event_handler": null,
            "enable_flapping": null,
            "enable_notifications": null,
            "enable_passive_checks": null,
            "enable_perfdata": null,
            "event_command": null,
            "fields": [],
            "flapping_threshold_high": null,
            "flapping_threshold_low": null,
            "groups": [],
            "has_agent": null,
            "icon_image": "img/nep/host/switch-high.png",
            "icon_image_alt": null,
            "imports": [
                "nx-ht-network"
            ],
            "master_should_connect": null,
            "max_check_attempts": null,
            "notes": null,
            "notes_url": null,
            "object_name": "nx-ht-network-switch",
            "object_type": "template",
            "retry_interval": null,
            "template_choice": null,
            "vars": {},
            "volatile": null,
            "zone": null
        },
        "nx-ht-network-switch-snmp": {
            "accept_config": null,
            "action_url": null,
            "address": null,
            "address6": null,
            "api_key": null,
            "check_command": null,
            "check_interval": null,
            "check_period": null,
            "check_timeout": null,
            "command_endpoint": null,
            "disabled": false,
            "display_name": null,
            "enable_active_checks": null,
            "enable_event_handler": null,
            "enable_flapping": null,
            "enable_notifications": null,
            "enable_passive_checks": null,
            "enable_perfdata": null,
            "event_command": null,
            "fields": [],
            "flapping_threshold_high": null,
            "flapping_threshold_low": null,
            "groups": [],
            "has_agent": null,
            "icon_image": null,
            "icon_image_alt": null,
            "imports": [
                "nx-ht-network-switch",
                "nx-ht-snmp"
            ],
            "master_should_connect": null,
            "max_check_attempts": null,
            "notes": null,
            "notes_url": null,
            "object_name": "nx-ht-network-switch-snmp",
            "object_type": "template",
            "retry_interval": null,
            "template_choice": null,
            "vars": {},
            "volatile": null,
            "zone": null
        },
        "nx-ht-network": {
            "accept_config": null,
            "action_url": null,
            "address": null,
            "address6": null,
            "api_key": null,
            "check_command": null,
            "check_interval": null,
            "check_period": null,
            "check_timeout": null,
            "command_endpoint": null,
            "disabled": false,
            "display_name": null,
            "enable_active_checks": null,
            "enable_event_handler": null,
            "enable_flapping": null,
            "enable_notifications": null,
            "enable_passive_checks": null,
            "enable_perfdata": null,
            "event_command": null,
            "fields": [
                {
                    "datafield_id": 200,
                    "is_required": "n",
                    "var_filter": null
                },
                {
                    "datafield_id": 201,
                    "is_required": "y",
                    "var_filter": null
                },
                {
                    "datafield_id": 202,
                    "is_required": "n",
                    "var_filter": null
                }
            ],
            "flapping_threshold_high": null,
            "flapping_threshold_low": null,
            "groups": [],
            "has_agent": null,
            "icon_image": null,
            "icon_image_alt": null,
            "imports": [
                "nx-ht-type-monitor"
            ],
            "master_should_connect": null,
            "max_check_attempts": null,
            "notes": null,
            "notes_url": null,
            "object_name": "nx-ht-network",
            "object_type": "template",
            "retry_interval": null,
            "template_choice": null,
            "vars": {
                "nx_hardware_vendor": "generic"
            },
            "volatile": null,
            "zone": null
        }
    },
    "Datafield": {
        "200": {
            "category_id": null,
            "varname": "nx_hardware_model",
            "caption": "[NX] Hardware model",
            "description": "Hardware model name",
            "datatype": "Icinga\\Module\\Director\\DataType\\DataTypeDatalist",
            "format": null,
            "originalId": "200",
            "settings": {
                "behavior": "suggest_optional",
                "data_type": "string",
                "datalist": "[NX] Model List"
            }
        },
        "201": {
            "category_id": null,
            "varname": "nx_hardware_vendor",
            "caption": "[NX] Hardware vendor",
            "description": "Hardware vendor name",
            "datatype": "Icinga\\Module\\Director\\DataType\\DataTypeDatalist",
            "format": null,
            "originalId": "201",
            "settings": {
                "behavior": "strict",
                "data_type": "string",
                "datalist": "[NX] Vendor List"
            }
        },
        "202": {
            "category_id": null,
            "varname": "nx_host_os_name",
            "caption": "[NX] Operating System",
            "description": null,
            "datatype": "Icinga\\Module\\Director\\DataType\\DataTypeDatalist",
            "format": null,
            "originalId": "202",
            "settings": {
                "behavior": "strict",
                "data_type": "string",
                "datalist": "[NX] Host OS Name List"
            }
        }
    }
}