{
    "DataList": {
        "[NX] Inventory Command List": {
            "list_name": "[NX] Inventory Command List",
            "owner": "root",
            "originalId": "19",
            "entries": [
                {
                    "entry_name": "age",
                    "entry_value": "old not up-to-date assets",
                    "format": "string",
                    "allowed_roles": null
                },
                {
                    "entry_name": "duplicates",
                    "entry_value": "OCS and GLPI duplicate assets",
                    "format": "string",
                    "allowed_roles": null
                },
                {
                    "entry_name": "glpi_duplicates",
                    "entry_value": "only GLPI duplicates",
                    "format": "string",
                    "allowed_roles": null
                },
                {
                    "entry_name": "ocs_duplicates",
                    "entry_value": "only OCS duplicates",
                    "format": "string",
                    "allowed_roles": null
                }
            ]
        }
    }
}