{
    "ServiceTemplate": {
        "nx-st-agentless-nrpe": {
            "action_url": null,
            "apply_for": null,
            "assign_filter": null,
            "check_command": "nx-c-check-nrpe",
            "check_interval": null,
            "check_period": null,
            "check_timeout": null,
            "command_endpoint": null,
            "disabled": false,
            "display_name": null,
            "enable_active_checks": null,
            "enable_event_handler": null,
            "enable_flapping": null,
            "enable_notifications": null,
            "enable_passive_checks": null,
            "enable_perfdata": null,
            "event_command": null,
            "fields": [
                {
                    "datafield_id": 147,
                    "is_required": "n",
                    "var_filter": null
                },
                {
                    "datafield_id": 148,
                    "is_required": "n",
                    "var_filter": null
                },
                {
                    "datafield_id": 149,
                    "is_required": "n",
                    "var_filter": null
                },
                {
                    "datafield_id": 150,
                    "is_required": "n",
                    "var_filter": null
                },
                {
                    "datafield_id": 151,
                    "is_required": "n",
                    "var_filter": null
                },
                {
                    "datafield_id": 152,
                    "is_required": "n",
                    "var_filter": null
                },
                {
                    "datafield_id": 153,
                    "is_required": "n",
                    "var_filter": null
                },
                {
                    "datafield_id": 154,
                    "is_required": "n",
                    "var_filter": null
                },
                {
                    "datafield_id": 155,
                    "is_required": "n",
                    "var_filter": null
                }
            ],
            "flapping_threshold_high": null,
            "flapping_threshold_low": null,
            "groups": [],
            "host": null,
            "icon_image": null,
            "icon_image_alt": null,
            "imports": [
                "nx-st-agentless"
            ],
            "max_check_attempts": null,
            "notes": null,
            "notes_url": null,
            "object_name": "nx-st-agentless-nrpe",
            "object_type": "template",
            "retry_interval": null,
            "service_set": null,
            "template_choice": null,
            "use_agent": null,
            "use_var_overrides": null,
            "vars": {},
            "volatile": null,
            "zone": null
        },
        "nx-st-agentless-nrpe-linux": {
            "action_url": null,
            "apply_for": null,
            "assign_filter": null,
            "check_command": null,
            "check_interval": null,
            "check_period": null,
            "check_timeout": null,
            "command_endpoint": null,
            "disabled": false,
            "display_name": null,
            "enable_active_checks": null,
            "enable_event_handler": null,
            "enable_flapping": null,
            "enable_notifications": null,
            "enable_passive_checks": null,
            "enable_perfdata": null,
            "event_command": null,
            "fields": [],
            "flapping_threshold_high": null,
            "flapping_threshold_low": null,
            "groups": [],
            "host": null,
            "icon_image": null,
            "icon_image_alt": null,
            "imports": [
                "nx-st-agentless-nrpe"
            ],
            "max_check_attempts": null,
            "notes": null,
            "notes_url": null,
            "object_name": "nx-st-agentless-nrpe-linux",
            "object_type": "template",
            "retry_interval": null,
            "service_set": null,
            "template_choice": null,
            "use_agent": null,
            "use_var_overrides": null,
            "vars": {
                "nx_nrpe_target": "linux"
            },
            "volatile": null,
            "zone": null
        },
        "nx-st-agentless-nrpe-linux-check-nrpe": {
            "action_url": null,
            "apply_for": null,
            "assign_filter": null,
            "check_command": null,
            "check_interval": null,
            "check_period": null,
            "check_timeout": null,
            "command_endpoint": null,
            "disabled": false,
            "display_name": null,
            "enable_active_checks": null,
            "enable_event_handler": null,
            "enable_flapping": null,
            "enable_notifications": null,
            "enable_passive_checks": null,
            "enable_perfdata": null,
            "event_command": null,
            "fields": [],
            "flapping_threshold_high": null,
            "flapping_threshold_low": null,
            "groups": [],
            "host": null,
            "icon_image": null,
            "icon_image_alt": null,
            "imports": [
                "nx-st-agentless-nrpe-linux"
            ],
            "max_check_attempts": null,
            "notes": null,
            "notes_url": null,
            "object_name": "nx-st-agentless-nrpe-linux-check-nrpe",
            "object_type": "template",
            "retry_interval": null,
            "service_set": null,
            "template_choice": null,
            "use_agent": null,
            "use_var_overrides": null,
            "vars": {},
            "volatile": null,
            "zone": null
        },
        "nx-st-agentless-nrpe-linux-cpu-load": {
            "action_url": null,
            "apply_for": null,
            "assign_filter": null,
            "check_command": null,
            "check_interval": null,
            "check_period": null,
            "check_timeout": null,
            "command_endpoint": null,
            "disabled": false,
            "display_name": null,
            "enable_active_checks": null,
            "enable_event_handler": null,
            "enable_flapping": null,
            "enable_notifications": null,
            "enable_passive_checks": null,
            "enable_perfdata": null,
            "event_command": null,
            "fields": [
                {
                    "datafield_id": 158,
                    "is_required": "n",
                    "var_filter": null
                },
                {
                    "datafield_id": 159,
                    "is_required": "n",
                    "var_filter": null
                },
                {
                    "datafield_id": 160,
                    "is_required": "n",
                    "var_filter": null
                },
                {
                    "datafield_id": 161,
                    "is_required": "n",
                    "var_filter": null
                },
                {
                    "datafield_id": 162,
                    "is_required": "n",
                    "var_filter": null
                },
                {
                    "datafield_id": 163,
                    "is_required": "n",
                    "var_filter": null
                }
            ],
            "flapping_threshold_high": null,
            "flapping_threshold_low": null,
            "groups": [],
            "host": null,
            "icon_image": null,
            "icon_image_alt": null,
            "imports": [
                "nx-st-agentless-nrpe-linux"
            ],
            "max_check_attempts": null,
            "notes": null,
            "notes_url": null,
            "object_name": "nx-st-agentless-nrpe-linux-cpu-load",
            "object_type": "template",
            "retry_interval": null,
            "service_set": null,
            "template_choice": null,
            "use_agent": null,
            "use_var_overrides": null,
            "vars": {
                "nx_nrpe_arguments": [
                    "-r",
                    "-w $nx_nrpe_wload1$,$nx_nrpe_wload5$,$nx_nrpe_wload15$",
                    "-c $nx_nrpe_cload1$,$nx_nrpe_cload5$,$nx_nrpe_cload15$"
                ],
                "nx_nrpe_cload1": "15",
                "nx_nrpe_cload15": "10",
                "nx_nrpe_cload5": "12",
                "nx_nrpe_command": "nx_check_load",
                "nx_nrpe_wload1": "10",
                "nx_nrpe_wload15": "6",
                "nx_nrpe_wload5": "8"
            },
            "volatile": null,
            "zone": null
        },
        "nx-st-agentless-nrpe-linux-disk-space-usage": {
            "action_url": null,
            "apply_for": null,
            "assign_filter": null,
            "check_command": null,
            "check_interval": null,
            "check_period": null,
            "check_timeout": null,
            "command_endpoint": null,
            "disabled": false,
            "display_name": null,
            "enable_active_checks": null,
            "enable_event_handler": null,
            "enable_flapping": null,
            "enable_notifications": null,
            "enable_passive_checks": null,
            "enable_perfdata": null,
            "event_command": null,
            "fields": [
                {
                    "datafield_id": 156,
                    "is_required": "n",
                    "var_filter": null
                },
                {
                    "datafield_id": 157,
                    "is_required": "n",
                    "var_filter": null
                }
            ],
            "flapping_threshold_high": null,
            "flapping_threshold_low": null,
            "groups": [],
            "host": null,
            "icon_image": null,
            "icon_image_alt": null,
            "imports": [
                "nx-st-agentless-nrpe-linux"
            ],
            "max_check_attempts": null,
            "notes": null,
            "notes_url": null,
            "object_name": "nx-st-agentless-nrpe-linux-disk-space-usage",
            "object_type": "template",
            "retry_interval": null,
            "service_set": null,
            "template_choice": null,
            "use_agent": null,
            "use_var_overrides": null,
            "vars": {
                "nx_nrpe_arguments": [
                    "-w $nrpe_disk_warning$",
                    "-c $nrpe_disk_critical$",
                    "-e"
                ],
                "nx_nrpe_command": "nx_check_disk",
                "nx_nrpe_disk_critical": "90",
                "nx_nrpe_disk_warning": "80"
            },
            "volatile": null,
            "zone": null
        },
        "nx-st-agentless-nrpe-linux-memory-usage": {
            "action_url": null,
            "apply_for": null,
            "assign_filter": null,
            "check_command": null,
            "check_interval": null,
            "check_period": null,
            "check_timeout": null,
            "command_endpoint": null,
            "disabled": false,
            "display_name": null,
            "enable_active_checks": null,
            "enable_event_handler": null,
            "enable_flapping": null,
            "enable_notifications": null,
            "enable_passive_checks": null,
            "enable_perfdata": null,
            "event_command": null,
            "fields": [
                {
                    "datafield_id": 164,
                    "is_required": "n",
                    "var_filter": null
                },
                {
                    "datafield_id": 165,
                    "is_required": "n",
                    "var_filter": null
                }
            ],
            "flapping_threshold_high": null,
            "flapping_threshold_low": null,
            "groups": [],
            "host": null,
            "icon_image": null,
            "icon_image_alt": null,
            "imports": [
                "nx-st-agentless-nrpe-linux"
            ],
            "max_check_attempts": null,
            "notes": null,
            "notes_url": null,
            "object_name": "nx-st-agentless-nrpe-linux-memory-usage",
            "object_type": "template",
            "retry_interval": null,
            "service_set": null,
            "template_choice": null,
            "use_agent": null,
            "use_var_overrides": null,
            "vars": {
                "nx_nrpe_arguments": [
                    "-u",
                    "-w $nx_nrpe_mem_warning$",
                    "-c $nx_nrpe_mem_critical$"
                ],
                "nx_nrpe_command": "nx_check_mem",
                "nx_nrpe_mem_critical": "90",
                "nx_nrpe_mem_warning": "80"
            },
            "volatile": null,
            "zone": null
        },
        "nx-st-agentless-nrpe-linux-swap-usage": {
            "action_url": null,
            "apply_for": null,
            "assign_filter": null,
            "check_command": null,
            "check_interval": null,
            "check_period": null,
            "check_timeout": null,
            "command_endpoint": null,
            "disabled": false,
            "display_name": null,
            "enable_active_checks": null,
            "enable_event_handler": null,
            "enable_flapping": null,
            "enable_notifications": null,
            "enable_passive_checks": null,
            "enable_perfdata": null,
            "event_command": null,
            "fields": [
                {
                    "datafield_id": 166,
                    "is_required": "n",
                    "var_filter": null
                },
                {
                    "datafield_id": 167,
                    "is_required": "n",
                    "var_filter": null
                }
            ],
            "flapping_threshold_high": null,
            "flapping_threshold_low": null,
            "groups": [],
            "host": null,
            "icon_image": null,
            "icon_image_alt": null,
            "imports": [
                "nx-st-agentless-nrpe-linux"
            ],
            "max_check_attempts": null,
            "notes": null,
            "notes_url": null,
            "object_name": "nx-st-agentless-nrpe-linux-swap-usage",
            "object_type": "template",
            "retry_interval": null,
            "service_set": null,
            "template_choice": null,
            "use_agent": null,
            "use_var_overrides": null,
            "vars": {
                "nx_nrpe_arguments": [
                    "-w $nx_nrpe_free_swap_warning$%",
                    "-c $nx_nrpe_free_swap_critical$%"
                ],
                "nx_nrpe_command": "nx_check_swap",
                "nx_nrpe_free_swap_critical": "10",
                "nx_nrpe_free_swap_warning": "20"
            },
            "volatile": null,
            "zone": null
        },
        "nx-st-agentless-nrpe-linux-uptime": {
            "action_url": null,
            "apply_for": null,
            "assign_filter": null,
            "check_command": null,
            "check_interval": null,
            "check_period": null,
            "check_timeout": null,
            "command_endpoint": null,
            "disabled": false,
            "display_name": null,
            "enable_active_checks": null,
            "enable_event_handler": null,
            "enable_flapping": null,
            "enable_notifications": null,
            "enable_passive_checks": null,
            "enable_perfdata": null,
            "event_command": null,
            "fields": [
                {
                    "datafield_id": 168,
                    "is_required": "n",
                    "var_filter": null
                },
                {
                    "datafield_id": 169,
                    "is_required": "n",
                    "var_filter": null
                },
                {
                    "datafield_id": 170,
                    "is_required": "n",
                    "var_filter": null
                },
                {
                    "datafield_id": 171,
                    "is_required": "n",
                    "var_filter": null
                }
            ],
            "flapping_threshold_high": null,
            "flapping_threshold_low": null,
            "groups": [],
            "host": null,
            "icon_image": null,
            "icon_image_alt": null,
            "imports": [
                "nx-st-agentless-nrpe-linux"
            ],
            "max_check_attempts": null,
            "notes": null,
            "notes_url": null,
            "object_name": "nx-st-agentless-nrpe-linux-uptime",
            "object_type": "template",
            "retry_interval": null,
            "service_set": null,
            "template_choice": null,
            "use_agent": null,
            "use_var_overrides": null,
            "vars": {
                "nx_nrpe_command": "nx_check_uptime"
            },
            "volatile": null,
            "zone": null
        },
        "nx-st-agentless-nrpe-windows": {
            "action_url": null,
            "apply_for": null,
            "assign_filter": null,
            "check_command": "nx-c-check-nrpe",
            "check_interval": null,
            "check_period": null,
            "check_timeout": null,
            "command_endpoint": null,
            "disabled": false,
            "display_name": null,
            "enable_active_checks": null,
            "enable_event_handler": null,
            "enable_flapping": null,
            "enable_notifications": null,
            "enable_passive_checks": null,
            "enable_perfdata": null,
            "event_command": null,
            "fields": [],
            "flapping_threshold_high": null,
            "flapping_threshold_low": null,
            "groups": [],
            "host": null,
            "icon_image": null,
            "icon_image_alt": null,
            "imports": [
                "nx-st-agentless-nrpe"
            ],
            "max_check_attempts": null,
            "notes": null,
            "notes_url": null,
            "object_name": "nx-st-agentless-nrpe-windows",
            "object_type": "template",
            "retry_interval": null,
            "service_set": null,
            "template_choice": null,
            "use_agent": null,
            "use_var_overrides": null,
            "vars": {
                "nx_nrpe_target": "windows"
            },
            "volatile": null,
            "zone": null
        },
        "nx-st-agentless-nrpe-windows-counters": {
            "action_url": null,
            "apply_for": null,
            "assign_filter": null,
            "check_command": null,
            "check_interval": null,
            "check_period": null,
            "check_timeout": null,
            "command_endpoint": null,
            "disabled": false,
            "display_name": null,
            "enable_active_checks": null,
            "enable_event_handler": null,
            "enable_flapping": null,
            "enable_notifications": null,
            "enable_passive_checks": null,
            "enable_perfdata": null,
            "event_command": null,
            "fields": [],
            "flapping_threshold_high": null,
            "flapping_threshold_low": null,
            "groups": [],
            "host": null,
            "icon_image": null,
            "icon_image_alt": null,
            "imports": [
                "nx-st-agentless-nrpe-windows"
            ],
            "max_check_attempts": null,
            "notes": null,
            "notes_url": null,
            "object_name": "nx-st-agentless-nrpe-windows-counters",
            "object_type": "template",
            "retry_interval": null,
            "service_set": null,
            "template_choice": null,
            "use_agent": null,
            "use_var_overrides": null,
            "vars": {
                "nx_nrpe_command": "check_phd"
            },
            "volatile": null,
            "zone": null
        },
        "nx-st-agentless-nrpe-windows-cpu-load": {
            "action_url": null,
            "apply_for": null,
            "assign_filter": null,
            "check_command": null,
            "check_interval": null,
            "check_period": null,
            "check_timeout": null,
            "command_endpoint": null,
            "disabled": false,
            "display_name": null,
            "enable_active_checks": null,
            "enable_event_handler": null,
            "enable_flapping": null,
            "enable_notifications": null,
            "enable_passive_checks": null,
            "enable_perfdata": null,
            "event_command": null,
            "fields": [
                {
                    "datafield_id": 168,
                    "is_required": "n",
                    "var_filter": null
                },
                {
                    "datafield_id": 169,
                    "is_required": "n",
                    "var_filter": null
                }
            ],
            "flapping_threshold_high": null,
            "flapping_threshold_low": null,
            "groups": [],
            "host": null,
            "icon_image": null,
            "icon_image_alt": null,
            "imports": [
                "nx-st-agentless-nrpe-windows"
            ],
            "max_check_attempts": null,
            "notes": null,
            "notes_url": null,
            "object_name": "nx-st-agentless-nrpe-windows-cpu-load",
            "object_type": "template",
            "retry_interval": null,
            "service_set": null,
            "template_choice": null,
            "use_agent": null,
            "use_var_overrides": null,
            "vars": {
                "nx_nrpe_arguments": [
                    "filter=none",
                    "warn=load > $nx_nrpe_max_uptime_warning$",
                    "crit=load > $nx_nrpe_max_uptime_critical$"
                ],
                "nx_nrpe_command": "check_cpu",
                "nx_nrpe_max_uptime_critical": "90",
                "nx_nrpe_max_uptime_warning": "80"
            },
            "volatile": null,
            "zone": null
        },
        "nx-st-agentless-nrpe-windows-cpu-load-legacy": {
            "action_url": null,
            "apply_for": null,
            "assign_filter": null,
            "check_command": null,
            "check_interval": null,
            "check_period": null,
            "check_timeout": null,
            "command_endpoint": null,
            "disabled": false,
            "display_name": null,
            "enable_active_checks": null,
            "enable_event_handler": null,
            "enable_flapping": null,
            "enable_notifications": null,
            "enable_passive_checks": null,
            "enable_perfdata": null,
            "event_command": null,
            "fields": [],
            "flapping_threshold_high": null,
            "flapping_threshold_low": null,
            "groups": [],
            "host": null,
            "icon_image": null,
            "icon_image_alt": null,
            "imports": [
                "nx-st-agentless-nrpe-windows"
            ],
            "max_check_attempts": null,
            "notes": null,
            "notes_url": null,
            "object_name": "nx-st-agentless-nrpe-windows-cpu-load-legacy",
            "object_type": "template",
            "retry_interval": null,
            "service_set": null,
            "template_choice": null,
            "use_agent": null,
            "use_var_overrides": null,
            "vars": {
                "nx_nrpe_command": "checkcpu"
            },
            "volatile": null,
            "zone": null
        },
        "nx-st-agentless-nrpe-windows-disk-space-usage": {
            "action_url": null,
            "apply_for": null,
            "assign_filter": null,
            "check_command": null,
            "check_interval": null,
            "check_period": null,
            "check_timeout": null,
            "command_endpoint": null,
            "disabled": false,
            "display_name": null,
            "enable_active_checks": null,
            "enable_event_handler": null,
            "enable_flapping": null,
            "enable_notifications": null,
            "enable_passive_checks": null,
            "enable_perfdata": null,
            "event_command": null,
            "fields": [
                {
                    "datafield_id": 156,
                    "is_required": "n",
                    "var_filter": null
                },
                {
                    "datafield_id": 157,
                    "is_required": "n",
                    "var_filter": null
                }
            ],
            "flapping_threshold_high": null,
            "flapping_threshold_low": null,
            "groups": [],
            "host": null,
            "icon_image": null,
            "icon_image_alt": null,
            "imports": [
                "nx-st-agentless-nrpe-windows"
            ],
            "max_check_attempts": null,
            "notes": null,
            "notes_url": null,
            "object_name": "nx-st-agentless-nrpe-windows-disk-space-usage",
            "object_type": "template",
            "retry_interval": null,
            "service_set": null,
            "template_choice": null,
            "use_agent": null,
            "use_var_overrides": null,
            "vars": {
                "nx_nrpe_arguments": [
                    "warning=free<$nx_nrpe_disk_warning$%",
                    "critical=free<$nx_nrpe_disk_critical$%",
                    "drive=*"
                ],
                "nx_nrpe_command": "check_drivesize",
                "nx_nrpe_disk_critical": "10",
                "nx_nrpe_disk_warning": "20"
            },
            "volatile": null,
            "zone": null
        },
        "nx-st-agentless-nrpe-windows-disk-space-usage-legacy": {
            "action_url": null,
            "apply_for": null,
            "assign_filter": null,
            "check_command": null,
            "check_interval": null,
            "check_period": null,
            "check_timeout": null,
            "command_endpoint": null,
            "disabled": false,
            "display_name": null,
            "enable_active_checks": null,
            "enable_event_handler": null,
            "enable_flapping": null,
            "enable_notifications": null,
            "enable_passive_checks": null,
            "enable_perfdata": null,
            "event_command": null,
            "fields": [],
            "flapping_threshold_high": null,
            "flapping_threshold_low": null,
            "groups": [],
            "host": null,
            "icon_image": null,
            "icon_image_alt": null,
            "imports": [
                "nx-st-agentless-nrpe-windows"
            ],
            "max_check_attempts": null,
            "notes": null,
            "notes_url": null,
            "object_name": "nx-st-agentless-nrpe-windows-disk-space-usage-legacy",
            "object_type": "template",
            "retry_interval": null,
            "service_set": null,
            "template_choice": null,
            "use_agent": null,
            "use_var_overrides": null,
            "vars": {
                "nx_nrpe_command": "checkdrivesize"
            },
            "volatile": null,
            "zone": null
        },
        "nx-st-agentless-nrpe-windows-memory-usage": {
            "action_url": null,
            "apply_for": null,
            "assign_filter": null,
            "check_command": null,
            "check_interval": null,
            "check_period": null,
            "check_timeout": null,
            "command_endpoint": null,
            "disabled": false,
            "display_name": null,
            "enable_active_checks": null,
            "enable_event_handler": null,
            "enable_flapping": null,
            "enable_notifications": null,
            "enable_passive_checks": null,
            "enable_perfdata": null,
            "event_command": null,
            "fields": [
                {
                    "datafield_id": 164,
                    "is_required": "n",
                    "var_filter": null
                },
                {
                    "datafield_id": 165,
                    "is_required": "n",
                    "var_filter": null
                }
            ],
            "flapping_threshold_high": null,
            "flapping_threshold_low": null,
            "groups": [],
            "host": null,
            "icon_image": null,
            "icon_image_alt": null,
            "imports": [
                "nx-st-agentless-nrpe-windows"
            ],
            "max_check_attempts": null,
            "notes": null,
            "notes_url": null,
            "object_name": "nx-st-agentless-nrpe-windows-memory-usage",
            "object_type": "template",
            "retry_interval": null,
            "service_set": null,
            "template_choice": null,
            "use_agent": null,
            "use_var_overrides": null,
            "vars": {
                "nx_nrpe_arguments": [
                    "warn=free < $nx_nrpe_mem_warning$%",
                    "crit=free < $nx_nrpe_mem_critical$%",
                    "type=physical"
                ],
                "nx_nrpe_command": "check_memory",
                "nx_nrpe_mem_critical": "10",
                "nx_nrpe_mem_warning": "20"
            },
            "volatile": null,
            "zone": null
        },
        "nx-st-agentless-nrpe-windows-memory-usage-legacy": {
            "action_url": null,
            "apply_for": null,
            "assign_filter": null,
            "check_command": null,
            "check_interval": null,
            "check_period": null,
            "check_timeout": null,
            "command_endpoint": null,
            "disabled": false,
            "display_name": null,
            "enable_active_checks": null,
            "enable_event_handler": null,
            "enable_flapping": null,
            "enable_notifications": null,
            "enable_passive_checks": null,
            "enable_perfdata": null,
            "event_command": null,
            "fields": [],
            "flapping_threshold_high": null,
            "flapping_threshold_low": null,
            "groups": [],
            "host": null,
            "icon_image": null,
            "icon_image_alt": null,
            "imports": [
                "nx-st-agentless-nrpe-windows"
            ],
            "max_check_attempts": null,
            "notes": null,
            "notes_url": null,
            "object_name": "nx-st-agentless-nrpe-windows-memory-usage-legacy",
            "object_type": "template",
            "retry_interval": null,
            "service_set": null,
            "template_choice": null,
            "use_agent": null,
            "use_var_overrides": null,
            "vars": {
                "nx_nrpe_command": "checkmem"
            },
            "volatile": null,
            "zone": null
        },
        "nx-st-agentless-nrpe-windows-network": {
            "action_url": null,
            "apply_for": null,
            "assign_filter": null,
            "check_command": null,
            "check_interval": null,
            "check_period": null,
            "check_timeout": null,
            "command_endpoint": null,
            "disabled": false,
            "display_name": null,
            "enable_active_checks": null,
            "enable_event_handler": null,
            "enable_flapping": null,
            "enable_notifications": null,
            "enable_passive_checks": null,
            "enable_perfdata": null,
            "event_command": null,
            "fields": [],
            "flapping_threshold_high": null,
            "flapping_threshold_low": null,
            "groups": [],
            "host": null,
            "icon_image": null,
            "icon_image_alt": null,
            "imports": [
                "nx-st-agentless-nrpe-windows"
            ],
            "max_check_attempts": null,
            "notes": null,
            "notes_url": null,
            "object_name": "nx-st-agentless-nrpe-windows-network",
            "object_type": "template",
            "retry_interval": null,
            "service_set": null,
            "template_choice": null,
            "use_agent": null,
            "use_var_overrides": null,
            "vars": {
                "nx_nrpe_command": "check_network"
            },
            "volatile": null,
            "zone": null
        },
        "nx-st-agentless-nrpe-windows-os-version": {
            "action_url": null,
            "apply_for": null,
            "assign_filter": null,
            "check_command": null,
            "check_interval": null,
            "check_period": null,
            "check_timeout": null,
            "command_endpoint": null,
            "disabled": false,
            "display_name": null,
            "enable_active_checks": null,
            "enable_event_handler": null,
            "enable_flapping": null,
            "enable_notifications": null,
            "enable_passive_checks": null,
            "enable_perfdata": null,
            "event_command": null,
            "fields": [],
            "flapping_threshold_high": null,
            "flapping_threshold_low": null,
            "groups": [],
            "host": null,
            "icon_image": null,
            "icon_image_alt": null,
            "imports": [
                "nx-st-agentless-nrpe-windows"
            ],
            "max_check_attempts": null,
            "notes": null,
            "notes_url": null,
            "object_name": "nx-st-agentless-nrpe-windows-os-version",
            "object_type": "template",
            "retry_interval": null,
            "service_set": null,
            "template_choice": null,
            "use_agent": null,
            "use_var_overrides": null,
            "vars": {
                "nx_nrpe_command": "check_os_version"
            },
            "volatile": null,
            "zone": null
        },
        "nx-st-agentless-nrpe-windows-pagefile-usage": {
            "action_url": null,
            "apply_for": null,
            "assign_filter": null,
            "check_command": null,
            "check_interval": null,
            "check_period": null,
            "check_timeout": null,
            "command_endpoint": null,
            "disabled": false,
            "display_name": null,
            "enable_active_checks": null,
            "enable_event_handler": null,
            "enable_flapping": null,
            "enable_notifications": null,
            "enable_passive_checks": null,
            "enable_perfdata": null,
            "event_command": null,
            "fields": [],
            "flapping_threshold_high": null,
            "flapping_threshold_low": null,
            "groups": [],
            "host": null,
            "icon_image": null,
            "icon_image_alt": null,
            "imports": [
                "nx-st-agentless-nrpe-windows"
            ],
            "max_check_attempts": null,
            "notes": null,
            "notes_url": null,
            "object_name": "nx-st-agentless-nrpe-windows-pagefile-usage",
            "object_type": "template",
            "retry_interval": null,
            "service_set": null,
            "template_choice": null,
            "use_agent": null,
            "use_var_overrides": null,
            "vars": {
                "nx_nrpe_arguments": [
                    "filter=name = 'total'"
                ],
                "nx_nrpe_command": "check_pagefile"
            },
            "volatile": null,
            "zone": null
        },
        "nx-st-agentless-nrpe-windows-process": {
            "action_url": null,
            "apply_for": null,
            "assign_filter": null,
            "check_command": null,
            "check_interval": null,
            "check_period": null,
            "check_timeout": null,
            "command_endpoint": null,
            "disabled": false,
            "display_name": null,
            "enable_active_checks": null,
            "enable_event_handler": null,
            "enable_flapping": null,
            "enable_notifications": null,
            "enable_passive_checks": null,
            "enable_perfdata": null,
            "event_command": null,
            "fields": [],
            "flapping_threshold_high": null,
            "flapping_threshold_low": null,
            "groups": [],
            "host": null,
            "icon_image": null,
            "icon_image_alt": null,
            "imports": [
                "nx-st-agentless-nrpe-windows"
            ],
            "max_check_attempts": null,
            "notes": null,
            "notes_url": null,
            "object_name": "nx-st-agentless-nrpe-windows-process",
            "object_type": "template",
            "retry_interval": null,
            "service_set": null,
            "template_choice": null,
            "use_agent": null,
            "use_var_overrides": null,
            "vars": {
                "nx_nrpe_command": "check_process"
            },
            "volatile": null,
            "zone": null
        },
        "nx-st-agentless-nrpe-windows-service": {
            "action_url": null,
            "apply_for": null,
            "assign_filter": null,
            "check_command": null,
            "check_interval": null,
            "check_period": null,
            "check_timeout": null,
            "command_endpoint": null,
            "disabled": false,
            "display_name": null,
            "enable_active_checks": null,
            "enable_event_handler": null,
            "enable_flapping": null,
            "enable_notifications": null,
            "enable_passive_checks": null,
            "enable_perfdata": null,
            "event_command": null,
            "fields": [
                {
                    "datafield_id": 172,
                    "is_required": "n",
                    "var_filter": null
                }
            ],
            "flapping_threshold_high": null,
            "flapping_threshold_low": null,
            "groups": [],
            "host": null,
            "icon_image": null,
            "icon_image_alt": null,
            "imports": [
                "nx-st-agentless-nrpe-windows"
            ],
            "max_check_attempts": null,
            "notes": null,
            "notes_url": null,
            "object_name": "nx-st-agentless-nrpe-windows-service",
            "object_type": "template",
            "retry_interval": null,
            "service_set": null,
            "template_choice": null,
            "use_agent": null,
            "use_var_overrides": null,
            "vars": {
                "nx_nrpe_arguments": [
                    "service=$nx_nrpe_windows_service$",
                    "crit=state = 'stopped'",
                    "warn=none"
                ],
                "nx_nrpe_command": "check_service"
            },
            "volatile": null,
            "zone": null
        },
        "nx-st-agentless-nrpe-windows-uptime": {
            "action_url": null,
            "apply_for": null,
            "assign_filter": null,
            "check_command": null,
            "check_interval": null,
            "check_period": null,
            "check_timeout": null,
            "command_endpoint": null,
            "disabled": false,
            "display_name": null,
            "enable_active_checks": null,
            "enable_event_handler": null,
            "enable_flapping": null,
            "enable_notifications": null,
            "enable_passive_checks": null,
            "enable_perfdata": null,
            "event_command": null,
            "fields": [
                {
                    "datafield_id": 170,
                    "is_required": "n",
                    "var_filter": null
                },
                {
                    "datafield_id": 171,
                    "is_required": "n",
                    "var_filter": null
                }
            ],
            "flapping_threshold_high": null,
            "flapping_threshold_low": null,
            "groups": [],
            "host": null,
            "icon_image": null,
            "icon_image_alt": null,
            "imports": [
                "nx-st-agentless-nrpe-windows"
            ],
            "max_check_attempts": null,
            "notes": null,
            "notes_url": null,
            "object_name": "nx-st-agentless-nrpe-windows-uptime",
            "object_type": "template",
            "retry_interval": null,
            "service_set": null,
            "template_choice": null,
            "use_agent": null,
            "use_var_overrides": null,
            "vars": {
                "nx_nrpe_arguments": [
                    "warn=uptime < -$nx_nrpe_min_uptime_warning$d",
                    "crit=uptime < -$nx_nrpe_min_uptime_critical$d"
                ],
                "nx_nrpe_command": "check_uptime",
                "nx_nrpe_min_uptime_critical": "0",
                "nx_nrpe_min_uptime_warning": "0"
            },
            "volatile": null,
            "zone": null
        },
        "nx-st-agentless-nrpe-windows-uptime-legacy": {
            "action_url": null,
            "apply_for": null,
            "assign_filter": null,
            "check_command": null,
            "check_interval": null,
            "check_period": null,
            "check_timeout": null,
            "command_endpoint": null,
            "disabled": false,
            "display_name": null,
            "enable_active_checks": null,
            "enable_event_handler": null,
            "enable_flapping": null,
            "enable_notifications": null,
            "enable_passive_checks": null,
            "enable_perfdata": null,
            "event_command": null,
            "fields": [],
            "flapping_threshold_high": null,
            "flapping_threshold_low": null,
            "groups": [],
            "host": null,
            "icon_image": null,
            "icon_image_alt": null,
            "imports": [
                "nx-st-agentless-nrpe-windows"
            ],
            "max_check_attempts": null,
            "notes": null,
            "notes_url": null,
            "object_name": "nx-st-agentless-nrpe-windows-uptime-legacy",
            "object_type": "template",
            "retry_interval": null,
            "service_set": null,
            "template_choice": null,
            "use_agent": null,
            "use_var_overrides": null,
            "vars": {
                "nx_nrpe_command": "checkuptime"
            },
            "volatile": null,
            "zone": null
        },
        "nx-st-agentless-nrpe-windows-wmi": {
            "action_url": null,
            "apply_for": null,
            "assign_filter": null,
            "check_command": null,
            "check_interval": null,
            "check_period": null,
            "check_timeout": null,
            "command_endpoint": null,
            "disabled": false,
            "display_name": null,
            "enable_active_checks": null,
            "enable_event_handler": null,
            "enable_flapping": null,
            "enable_notifications": null,
            "enable_passive_checks": null,
            "enable_perfdata": null,
            "event_command": null,
            "fields": [],
            "flapping_threshold_high": null,
            "flapping_threshold_low": null,
            "groups": [],
            "host": null,
            "icon_image": null,
            "icon_image_alt": null,
            "imports": [
                "nx-st-agentless-nrpe-windows"
            ],
            "max_check_attempts": null,
            "notes": null,
            "notes_url": null,
            "object_name": "nx-st-agentless-nrpe-windows-wmi",
            "object_type": "template",
            "retry_interval": null,
            "service_set": null,
            "template_choice": null,
            "use_agent": null,
            "use_var_overrides": null,
            "vars": {
                "nx_nrpe_command": "check_wmi"
            },
            "volatile": null,
            "zone": null
        }
    },
    "Datafield": {
        "147": {
            "varname": "nx_nrpe_arguments",
            "caption": "[NX] NRPE Arguments",
            "description": null,
            "datatype": "Icinga\\Module\\Director\\DataType\\DataTypeArray",
            "format": null,
            "originalId": "147",
            "settings": {},
            "category": "[NX] NRPE Settings (Advanced)"
        },
        "148": {
            "varname": "nx_nrpe_command",
            "caption": "[NX] NRPE Command",
            "description": null,
            "datatype": "Icinga\\Module\\Director\\DataType\\DataTypeString",
            "format": null,
            "originalId": "148",
            "settings": {
                "visibility": "visible"
            },
            "category": "[NX] NRPE Settings (Advanced)"
        },
        "149": {
            "varname": "nx_nrpe_ipv4",
            "caption": "[NX] Force use of IPv4",
            "description": null,
            "datatype": "Icinga\\Module\\Director\\DataType\\DataTypeBoolean",
            "format": null,
            "originalId": "149",
            "settings": {},
            "category": "[NX] NRPE Connection Settings"
        },
        "150": {
            "varname": "nx_nrpe_ipv6",
            "caption": "[NX] Force use of IPv6",
            "description": null,
            "datatype": "Icinga\\Module\\Director\\DataType\\DataTypeBoolean",
            "format": null,
            "originalId": "150",
            "settings": {},
            "category": "[NX] NRPE Connection Settings"
        },
        "151": {
            "varname": "nx_nrpe_no_ssl",
            "caption": "[NX] Connect without SSL",
            "description": null,
            "datatype": "Icinga\\Module\\Director\\DataType\\DataTypeBoolean",
            "format": null,
            "originalId": "151",
            "settings": {},
            "category": "[NX] NRPE Connection Settings"
        },
        "152": {
            "varname": "nx_nrpe_port",
            "caption": "[NX] NRPE TCP Port",
            "description": null,
            "datatype": "Icinga\\Module\\Director\\DataType\\DataTypeString",
            "format": null,
            "originalId": "152",
            "settings": {
                "visibility": "visible"
            },
            "category": "[NX] NRPE Connection Settings"
        },
        "153": {
            "varname": "nx_nrpe_target",
            "caption": "[NX] Target OS Family",
            "description": null,
            "datatype": "Icinga\\Module\\Director\\DataType\\DataTypeDatalist",
            "format": null,
            "originalId": "153",
            "settings": {
                "behavior": "strict",
                "data_type": "string",
                "datalist": "[NX] NRPE Target Type"
            },
            "category": "[NX] NRPE Settings (Advanced)"
        },
        "154": {
            "varname": "nx_nrpe_timeout",
            "caption": "[NX] Connection timeout",
            "description": "<interval>:<state> = <Number of seconds before connection times out>:<Check state to exit with in the event of a timeout (default=CRITICAL)>",
            "datatype": "Icinga\\Module\\Director\\DataType\\DataTypeString",
            "format": null,
            "originalId": "154",
            "settings": {
                "visibility": "visible"
            },
            "category": "[NX] NRPE Connection Settings"
        },
        "155": {
            "varname": "nx_nrpe_timeout_unknown",
            "caption": "[NX] Return UNKNOWN on Connection Timeout",
            "description": null,
            "datatype": "Icinga\\Module\\Director\\DataType\\DataTypeBoolean",
            "format": null,
            "originalId": "155",
            "settings": {},
            "category": "[NX] NRPE Connection Settings"
        },
        "158": {
            "varname": "nx_nrpe_cload1",
            "caption": "[NX] Load 1 Critical threshold",
            "description": null,
            "datatype": "Icinga\\Module\\Director\\DataType\\DataTypeString",
            "format": null,
            "originalId": "158",
            "settings": {
                "visibility": "visible"
            },
            "category": "[NX] NRPE Settings"
        },
        "159": {
            "varname": "nx_nrpe_cload15",
            "caption": "[NX] Load 15 Critical threshold",
            "description": null,
            "datatype": "Icinga\\Module\\Director\\DataType\\DataTypeString",
            "format": null,
            "originalId": "159",
            "settings": {
                "visibility": "visible"
            },
            "category": "[NX] NRPE Settings"
        },
        "160": {
            "varname": "nx_nrpe_cload5",
            "caption": "[NX] Load 5 Critical threshold",
            "description": null,
            "datatype": "Icinga\\Module\\Director\\DataType\\DataTypeString",
            "format": null,
            "originalId": "160",
            "settings": {
                "visibility": "visible"
            },
            "category": "[NX] NRPE Settings"
        },
        "161": {
            "varname": "nx_nrpe_wload1",
            "caption": "[NX] Load 1 Warning threshold",
            "description": null,
            "datatype": "Icinga\\Module\\Director\\DataType\\DataTypeString",
            "format": null,
            "originalId": "161",
            "settings": {
                "visibility": "visible"
            },
            "category": "[NX] NRPE Settings"
        },
        "162": {
            "varname": "nx_nrpe_wload15",
            "caption": "[NX] Load 15 Warning threshold",
            "description": null,
            "datatype": "Icinga\\Module\\Director\\DataType\\DataTypeString",
            "format": null,
            "originalId": "162",
            "settings": {
                "visibility": "visible"
            },
            "category": "[NX] NRPE Settings"
        },
        "163": {
            "varname": "nx_nrpe_wload5",
            "caption": "[NX] Load 5 Warning threshold",
            "description": null,
            "datatype": "Icinga\\Module\\Director\\DataType\\DataTypeString",
            "format": null,
            "originalId": "163",
            "settings": {
                "visibility": "visible"
            },
            "category": "[NX] NRPE Settings"
        },
        "156": {
            "varname": "nx_nrpe_disk_critical",
            "caption": "[NX] Disk Critical threshold",
            "description": "% Critical Used Disk",
            "datatype": "Icinga\\Module\\Director\\DataType\\DataTypeString",
            "format": null,
            "originalId": "156",
            "settings": {
                "visibility": "visible"
            },
            "category": "[NX] NRPE Settings"
        },
        "157": {
            "varname": "nx_nrpe_disk_warning",
            "caption": "[NX] Disk Warning threshold",
            "description": "% Warning Used Disk",
            "datatype": "Icinga\\Module\\Director\\DataType\\DataTypeString",
            "format": null,
            "originalId": "157",
            "settings": {
                "visibility": "visible"
            },
            "category": "[NX] NRPE Settings"
        },
        "164": {
            "varname": "nx_nrpe_mem_critical",
            "caption": "[NX] Memory used Critical threshold",
            "description": "% Critical Used Memory",
            "datatype": "Icinga\\Module\\Director\\DataType\\DataTypeString",
            "format": null,
            "originalId": "164",
            "settings": {
                "visibility": "visible"
            },
            "category": "[NX] NRPE Settings"
        },
        "165": {
            "varname": "nx_nrpe_mem_warning",
            "caption": "[NX] Memory used Warning threshold",
            "description": "% Warning Used Memory",
            "datatype": "Icinga\\Module\\Director\\DataType\\DataTypeString",
            "format": null,
            "originalId": "165",
            "settings": {
                "visibility": "visible"
            },
            "category": "[NX] NRPE Settings"
        },
        "166": {
            "varname": "nx_nrpe_free_swap_critical",
            "caption": "[NX] Swap free Critical threshold",
            "description": "% Free Memory Swap Critical",
            "datatype": "Icinga\\Module\\Director\\DataType\\DataTypeString",
            "format": null,
            "originalId": "166",
            "settings": {
                "visibility": "visible"
            },
            "category": "[NX] NRPE Settings"
        },
        "167": {
            "varname": "nx_nrpe_free_swap_warning",
            "caption": "[NX] Swap free Warning threshold",
            "description": "% Free Memory Swap Warning",
            "datatype": "Icinga\\Module\\Director\\DataType\\DataTypeString",
            "format": null,
            "originalId": "167",
            "settings": {
                "visibility": "visible"
            },
            "category": "[NX] NRPE Settings"
        },
        "168": {
            "varname": "nx_nrpe_max_uptime_critical",
            "caption": "[NX] Max uptime Critical threshold",
            "description": "Critical Max Uptime in Minutes (Arg: -C $nx_nrpe_max_uptime_critical$)",
            "datatype": "Icinga\\Module\\Director\\DataType\\DataTypeString",
            "format": null,
            "originalId": "168",
            "settings": {
                "visibility": "visible"
            },
            "category": "[NX] NRPE Settings"
        },
        "169": {
            "varname": "nx_nrpe_max_uptime_warning",
            "caption": "[NX] Max uptime Warning threshold",
            "description": "Warning Max Uptime in Minutes (Arg: -W $nx_nrpe_max_uptime_warning$)",
            "datatype": "Icinga\\Module\\Director\\DataType\\DataTypeString",
            "format": null,
            "originalId": "169",
            "settings": {
                "visibility": "visible"
            },
            "category": "[NX] NRPE Settings"
        },
        "170": {
            "varname": "nx_nrpe_min_uptime_critical",
            "caption": "[NX] Min uptime Critical threshold",
            "description": "Critical Min Uptime in Minutes (Arg: -c $nx_nrpe_min_uptime_critical$)",
            "datatype": "Icinga\\Module\\Director\\DataType\\DataTypeString",
            "format": null,
            "originalId": "170",
            "settings": {
                "visibility": "visible"
            },
            "category": "[NX] NRPE Settings"
        },
        "171": {
            "varname": "nx_nrpe_min_uptime_warning",
            "caption": "[NX] Min uptime Warning threshold",
            "description": "Warning Min Uptime in Minutes (Arg: -w $nx_nrpe_min_uptime_warning$)",
            "datatype": "Icinga\\Module\\Director\\DataType\\DataTypeString",
            "format": null,
            "originalId": "171",
            "settings": {
                "visibility": "visible"
            },
            "category": "[NX] NRPE Settings"
        },
        "172": {
            "varname": "nx_nrpe_windows_service",
            "caption": "[NX] Windows Service name",
            "description": null,
            "datatype": "Icinga\\Module\\Director\\DataType\\DataTypeString",
            "format": null,
            "originalId": "172",
            "settings": {
                "visibility": "visible"
            },
            "category": "[NX] NRPE Connection Settings"
        }
    },
    "DatafieldCategory": {
        "[NX] NRPE Settings (Advanced)": {
            "category_name": "[NX] NRPE Settings (Advanced)",
            "description": null,
            "originalId": "2"
        },
        "[NX] NRPE Connection Settings": {
            "category_name": "[NX] NRPE Connection Settings",
            "description": null,
            "originalId": "3"
        },
        "[NX] NRPE Settings": {
            "category_name": "[NX] NRPE Settings",
            "description": null,
            "originalId": "1"
        }
    }
}